(kicad_sch (version 20230121) (generator eeschema)

  (uuid 891735e7-d2e0-42fb-805b-81ecf2172d7f)

  (paper "A4")

  (lib_symbols
    (symbol "Connector_Generic:Conn_01x02" (pin_names (offset 1.016) hide) (in_bom yes) (on_board yes)
      (property "Reference" "J" (at 0 2.54 0)
        (effects (font (size 1.27 1.27)))
      )
      (property "Value" "Conn_01x02" (at 0 -5.08 0)
        (effects (font (size 1.27 1.27)))
      )
      (property "Footprint" "" (at 0 0 0)
        (effects (font (size 1.27 1.27)) hide)
      )
      (property "Datasheet" "~" (at 0 0 0)
        (effects (font (size 1.27 1.27)) hide)
      )
      (property "ki_keywords" "connector" (at 0 0 0)
        (effects (font (size 1.27 1.27)) hide)
      )
      (property "ki_description" "Generic connector, single row, 01x02, script generated (kicad-library-utils/schlib/autogen/connector/)" (at 0 0 0)
        (effects (font (size 1.27 1.27)) hide)
      )
      (property "ki_fp_filters" "Connector*:*_1x??_*" (at 0 0 0)
        (effects (font (size 1.27 1.27)) hide)
      )
      (symbol "Conn_01x02_1_1"
        (rectangle (start -1.27 -2.413) (end 0 -2.667)
          (stroke (width 0.1524) (type default))
          (fill (type none))
        )
        (rectangle (start -1.27 0.127) (end 0 -0.127)
          (stroke (width 0.1524) (type default))
          (fill (type none))
        )
        (rectangle (start -1.27 1.27) (end 1.27 -3.81)
          (stroke (width 0.254) (type default))
          (fill (type background))
        )
        (pin passive line (at -5.08 0 0) (length 3.81)
          (name "Pin_1" (effects (font (size 1.27 1.27))))
          (number "1" (effects (font (size 1.27 1.27))))
        )
        (pin passive line (at -5.08 -2.54 0) (length 3.81)
          (name "Pin_2" (effects (font (size 1.27 1.27))))
          (number "2" (effects (font (size 1.27 1.27))))
        )
      )
    )
    (symbol "Device:R" (pin_numbers hide) (pin_names (offset 0)) (in_bom yes) (on_board yes)
      (property "Reference" "R" (at 2.032 0 90)
        (effects (font (size 1.27 1.27)))
      )
      (property "Value" "R" (at 0 0 90)
        (effects (font (size 1.27 1.27)))
      )
      (property "Footprint" "" (at -1.778 0 90)
        (effects (font (size 1.27 1.27)) hide)
      )
      (property "Datasheet" "~" (at 0 0 0)
        (effects (font (size 1.27 1.27)) hide)
      )
      (property "ki_keywords" "R res resistor" (at 0 0 0)
        (effects (font (size 1.27 1.27)) hide)
      )
      (property "ki_description" "Resistor" (at 0 0 0)
        (effects (font (size 1.27 1.27)) hide)
      )
      (property "ki_fp_filters" "R_*" (at 0 0 0)
        (effects (font (size 1.27 1.27)) hide)
      )
      (symbol "R_0_1"
        (rectangle (start -1.016 -2.54) (end 1.016 2.54)
          (stroke (width 0.254) (type default))
          (fill (type none))
        )
      )
      (symbol "R_1_1"
        (pin passive line (at 0 3.81 270) (length 1.27)
          (name "~" (effects (font (size 1.27 1.27))))
          (number "1" (effects (font (size 1.27 1.27))))
        )
        (pin passive line (at 0 -3.81 90) (length 1.27)
          (name "~" (effects (font (size 1.27 1.27))))
          (number "2" (effects (font (size 1.27 1.27))))
        )
      )
    )
    (symbol "MCU_Module:Arduino_Nano_v3.x" (in_bom yes) (on_board yes)
      (property "Reference" "A" (at -10.16 23.495 0)
        (effects (font (size 1.27 1.27)) (justify left bottom))
      )
      (property "Value" "Arduino_Nano_v3.x" (at 5.08 -24.13 0)
        (effects (font (size 1.27 1.27)) (justify left top))
      )
      (property "Footprint" "Module:Arduino_Nano" (at 0 0 0)
        (effects (font (size 1.27 1.27) italic) hide)
      )
      (property "Datasheet" "http://www.mouser.com/pdfdocs/Gravitech_Arduino_Nano3_0.pdf" (at 0 0 0)
        (effects (font (size 1.27 1.27)) hide)
      )
      (property "ki_keywords" "Arduino nano microcontroller module USB" (at 0 0 0)
        (effects (font (size 1.27 1.27)) hide)
      )
      (property "ki_description" "Arduino Nano v3.x" (at 0 0 0)
        (effects (font (size 1.27 1.27)) hide)
      )
      (property "ki_fp_filters" "Arduino*Nano*" (at 0 0 0)
        (effects (font (size 1.27 1.27)) hide)
      )
      (symbol "Arduino_Nano_v3.x_0_1"
        (rectangle (start -10.16 22.86) (end 10.16 -22.86)
          (stroke (width 0.254) (type default))
          (fill (type background))
        )
      )
      (symbol "Arduino_Nano_v3.x_1_1"
        (pin bidirectional line (at -12.7 12.7 0) (length 2.54)
          (name "D1/TX" (effects (font (size 1.27 1.27))))
          (number "1" (effects (font (size 1.27 1.27))))
        )
        (pin bidirectional line (at -12.7 -2.54 0) (length 2.54)
          (name "D7" (effects (font (size 1.27 1.27))))
          (number "10" (effects (font (size 1.27 1.27))))
        )
        (pin bidirectional line (at -12.7 -5.08 0) (length 2.54)
          (name "D8" (effects (font (size 1.27 1.27))))
          (number "11" (effects (font (size 1.27 1.27))))
        )
        (pin bidirectional line (at -12.7 -7.62 0) (length 2.54)
          (name "D9" (effects (font (size 1.27 1.27))))
          (number "12" (effects (font (size 1.27 1.27))))
        )
        (pin bidirectional line (at -12.7 -10.16 0) (length 2.54)
          (name "D10" (effects (font (size 1.27 1.27))))
          (number "13" (effects (font (size 1.27 1.27))))
        )
        (pin bidirectional line (at -12.7 -12.7 0) (length 2.54)
          (name "D11" (effects (font (size 1.27 1.27))))
          (number "14" (effects (font (size 1.27 1.27))))
        )
        (pin bidirectional line (at -12.7 -15.24 0) (length 2.54)
          (name "D12" (effects (font (size 1.27 1.27))))
          (number "15" (effects (font (size 1.27 1.27))))
        )
        (pin bidirectional line (at -12.7 -17.78 0) (length 2.54)
          (name "D13" (effects (font (size 1.27 1.27))))
          (number "16" (effects (font (size 1.27 1.27))))
        )
        (pin power_out line (at 2.54 25.4 270) (length 2.54)
          (name "3V3" (effects (font (size 1.27 1.27))))
          (number "17" (effects (font (size 1.27 1.27))))
        )
        (pin input line (at 12.7 5.08 180) (length 2.54)
          (name "AREF" (effects (font (size 1.27 1.27))))
          (number "18" (effects (font (size 1.27 1.27))))
        )
        (pin bidirectional line (at 12.7 0 180) (length 2.54)
          (name "A0" (effects (font (size 1.27 1.27))))
          (number "19" (effects (font (size 1.27 1.27))))
        )
        (pin bidirectional line (at -12.7 15.24 0) (length 2.54)
          (name "D0/RX" (effects (font (size 1.27 1.27))))
          (number "2" (effects (font (size 1.27 1.27))))
        )
        (pin bidirectional line (at 12.7 -2.54 180) (length 2.54)
          (name "A1" (effects (font (size 1.27 1.27))))
          (number "20" (effects (font (size 1.27 1.27))))
        )
        (pin bidirectional line (at 12.7 -5.08 180) (length 2.54)
          (name "A2" (effects (font (size 1.27 1.27))))
          (number "21" (effects (font (size 1.27 1.27))))
        )
        (pin bidirectional line (at 12.7 -7.62 180) (length 2.54)
          (name "A3" (effects (font (size 1.27 1.27))))
          (number "22" (effects (font (size 1.27 1.27))))
        )
        (pin bidirectional line (at 12.7 -10.16 180) (length 2.54)
          (name "A4" (effects (font (size 1.27 1.27))))
          (number "23" (effects (font (size 1.27 1.27))))
        )
        (pin bidirectional line (at 12.7 -12.7 180) (length 2.54)
          (name "A5" (effects (font (size 1.27 1.27))))
          (number "24" (effects (font (size 1.27 1.27))))
        )
        (pin bidirectional line (at 12.7 -15.24 180) (length 2.54)
          (name "A6" (effects (font (size 1.27 1.27))))
          (number "25" (effects (font (size 1.27 1.27))))
        )
        (pin bidirectional line (at 12.7 -17.78 180) (length 2.54)
          (name "A7" (effects (font (size 1.27 1.27))))
          (number "26" (effects (font (size 1.27 1.27))))
        )
        (pin power_out line (at 5.08 25.4 270) (length 2.54)
          (name "+5V" (effects (font (size 1.27 1.27))))
          (number "27" (effects (font (size 1.27 1.27))))
        )
        (pin input line (at 12.7 15.24 180) (length 2.54)
          (name "~{RESET}" (effects (font (size 1.27 1.27))))
          (number "28" (effects (font (size 1.27 1.27))))
        )
        (pin power_in line (at 2.54 -25.4 90) (length 2.54)
          (name "GND" (effects (font (size 1.27 1.27))))
          (number "29" (effects (font (size 1.27 1.27))))
        )
        (pin input line (at 12.7 12.7 180) (length 2.54)
          (name "~{RESET}" (effects (font (size 1.27 1.27))))
          (number "3" (effects (font (size 1.27 1.27))))
        )
        (pin power_in line (at -2.54 25.4 270) (length 2.54)
          (name "VIN" (effects (font (size 1.27 1.27))))
          (number "30" (effects (font (size 1.27 1.27))))
        )
        (pin power_in line (at 0 -25.4 90) (length 2.54)
          (name "GND" (effects (font (size 1.27 1.27))))
          (number "4" (effects (font (size 1.27 1.27))))
        )
        (pin bidirectional line (at -12.7 10.16 0) (length 2.54)
          (name "D2" (effects (font (size 1.27 1.27))))
          (number "5" (effects (font (size 1.27 1.27))))
        )
        (pin bidirectional line (at -12.7 7.62 0) (length 2.54)
          (name "D3" (effects (font (size 1.27 1.27))))
          (number "6" (effects (font (size 1.27 1.27))))
        )
        (pin bidirectional line (at -12.7 5.08 0) (length 2.54)
          (name "D4" (effects (font (size 1.27 1.27))))
          (number "7" (effects (font (size 1.27 1.27))))
        )
        (pin bidirectional line (at -12.7 2.54 0) (length 2.54)
          (name "D5" (effects (font (size 1.27 1.27))))
          (number "8" (effects (font (size 1.27 1.27))))
        )
        (pin bidirectional line (at -12.7 0 0) (length 2.54)
          (name "D6" (effects (font (size 1.27 1.27))))
          (number "9" (effects (font (size 1.27 1.27))))
        )
      )
    )
    (symbol "dac_ino:Conn_01x01_Units" (pin_names (offset 1.016) hide) (in_bom yes) (on_board yes)
      (property "Reference" "J" (at 0 2.54 0)
        (effects (font (size 1.27 1.27)))
      )
      (property "Value" "Conn_01x01_Units" (at 0 -2.54 0)
        (effects (font (size 1.27 1.27)))
      )
      (property "Footprint" "" (at 0 0 0)
        (effects (font (size 1.27 1.27)) hide)
      )
      (property "Datasheet" "~" (at 0 0 0)
        (effects (font (size 1.27 1.27)) hide)
      )
      (property "ki_locked" "" (at 0 0 0)
        (effects (font (size 1.27 1.27)))
      )
      (property "ki_keywords" "connector" (at 0 0 0)
        (effects (font (size 1.27 1.27)) hide)
      )
      (property "ki_description" "Generic connector, single row, 01x01, script generated (kicad-library-utils/schlib/autogen/connector/)" (at 0 0 0)
        (effects (font (size 1.27 1.27)) hide)
      )
      (property "ki_fp_filters" "Connector*:*_1x??_*" (at 0 0 0)
        (effects (font (size 1.27 1.27)) hide)
      )
      (symbol "Conn_01x01_Units_1_1"
        (rectangle (start -1.27 0.127) (end 0 -0.127)
          (stroke (width 0.1524) (type solid))
          (fill (type none))
        )
        (rectangle (start -1.27 1.27) (end 1.27 -1.27)
          (stroke (width 0.254) (type solid))
          (fill (type background))
        )
        (pin passive line (at -5.08 0 0) (length 3.81)
          (name "Pin_1" (effects (font (size 1.27 1.27))))
          (number "1" (effects (font (size 1.27 1.27))))
        )
      )
      (symbol "Conn_01x01_Units_2_1"
        (rectangle (start -1.27 0.127) (end 0 -0.127)
          (stroke (width 0.1524) (type solid))
          (fill (type none))
        )
        (rectangle (start -1.27 1.27) (end 1.27 -1.27)
          (stroke (width 0.254) (type solid))
          (fill (type background))
        )
        (pin passive line (at -5.08 0 0) (length 3.81)
          (name "Pin_2" (effects (font (size 1.27 1.27))))
          (number "2" (effects (font (size 1.27 1.27))))
        )
      )
      (symbol "Conn_01x01_Units_3_1"
        (rectangle (start -1.27 0.127) (end 0 -0.127)
          (stroke (width 0.1524) (type solid))
          (fill (type none))
        )
        (rectangle (start -1.27 1.27) (end 1.27 -1.27)
          (stroke (width 0.254) (type solid))
          (fill (type background))
        )
        (pin passive line (at -5.08 0 0) (length 3.81)
          (name "Pin_3" (effects (font (size 1.27 1.27))))
          (number "3" (effects (font (size 1.27 1.27))))
        )
      )
      (symbol "Conn_01x01_Units_4_1"
        (rectangle (start -1.27 0.127) (end 0 -0.127)
          (stroke (width 0.1524) (type solid))
          (fill (type none))
        )
        (rectangle (start -1.27 1.27) (end 1.27 -1.27)
          (stroke (width 0.254) (type solid))
          (fill (type background))
        )
        (pin passive line (at -5.08 0 0) (length 3.81)
          (name "Pin_4" (effects (font (size 1.27 1.27))))
          (number "4" (effects (font (size 1.27 1.27))))
        )
      )
      (symbol "Conn_01x01_Units_5_1"
        (rectangle (start -1.27 0.127) (end 0 -0.127)
          (stroke (width 0.1524) (type solid))
          (fill (type none))
        )
        (rectangle (start -1.27 1.27) (end 1.27 -1.27)
          (stroke (width 0.254) (type solid))
          (fill (type background))
        )
        (pin passive line (at -5.08 0 0) (length 3.81)
          (name "Pin_5" (effects (font (size 1.27 1.27))))
          (number "5" (effects (font (size 1.27 1.27))))
        )
      )
      (symbol "Conn_01x01_Units_6_1"
        (rectangle (start -1.27 0.127) (end 0 -0.127)
          (stroke (width 0.1524) (type solid))
          (fill (type none))
        )
        (rectangle (start -1.27 1.27) (end 1.27 -1.27)
          (stroke (width 0.254) (type solid))
          (fill (type background))
        )
        (pin passive line (at -5.08 0 0) (length 3.81)
          (name "Pin_6" (effects (font (size 1.27 1.27))))
          (number "6" (effects (font (size 1.27 1.27))))
        )
      )
      (symbol "Conn_01x01_Units_7_1"
        (rectangle (start -1.27 0.127) (end 0 -0.127)
          (stroke (width 0.1524) (type solid))
          (fill (type none))
        )
        (rectangle (start -1.27 1.27) (end 1.27 -1.27)
          (stroke (width 0.254) (type solid))
          (fill (type background))
        )
        (pin passive line (at -5.08 0 0) (length 3.81)
          (name "Pin_7" (effects (font (size 1.27 1.27))))
          (number "7" (effects (font (size 1.27 1.27))))
        )
      )
      (symbol "Conn_01x01_Units_8_1"
        (rectangle (start -1.27 0.127) (end 0 -0.127)
          (stroke (width 0.1524) (type solid))
          (fill (type none))
        )
        (rectangle (start -1.27 1.27) (end 1.27 -1.27)
          (stroke (width 0.254) (type solid))
          (fill (type background))
        )
        (pin passive line (at -5.08 0 0) (length 3.81)
          (name "Pin_8" (effects (font (size 1.27 1.27))))
          (number "8" (effects (font (size 1.27 1.27))))
        )
      )
    )
    (symbol "power:GND" (power) (pin_names (offset 0)) (in_bom yes) (on_board yes)
      (property "Reference" "#PWR" (at 0 -6.35 0)
        (effects (font (size 1.27 1.27)) hide)
      )
      (property "Value" "GND" (at 0 -3.81 0)
        (effects (font (size 1.27 1.27)))
      )
      (property "Footprint" "" (at 0 0 0)
        (effects (font (size 1.27 1.27)) hide)
      )
      (property "Datasheet" "" (at 0 0 0)
        (effects (font (size 1.27 1.27)) hide)
      )
      (property "ki_keywords" "global power" (at 0 0 0)
        (effects (font (size 1.27 1.27)) hide)
      )
      (property "ki_description" "Power symbol creates a global label with name \"GND\" , ground" (at 0 0 0)
        (effects (font (size 1.27 1.27)) hide)
      )
      (symbol "GND_0_1"
        (polyline
          (pts
            (xy 0 0)
            (xy 0 -1.27)
            (xy 1.27 -1.27)
            (xy 0 -2.54)
            (xy -1.27 -1.27)
            (xy 0 -1.27)
          )
          (stroke (width 0) (type default))
          (fill (type none))
        )
      )
      (symbol "GND_1_1"
        (pin power_in line (at 0 0 270) (length 0) hide
          (name "GND" (effects (font (size 1.27 1.27))))
          (number "1" (effects (font (size 1.27 1.27))))
        )
      )
    )
  )

  (junction (at 113.03 102.87) (diameter 0) (color 0 0 0 0)
    (uuid 0eed14c7-04df-4965-9c7d-726d7afad1ac)
  )
  (junction (at 151.13 118.11) (diameter 0) (color 0 0 0 0)
    (uuid 8f87c5b5-5155-463e-83e0-4be3b5b1be8d)
  )

  (no_connect (at 135.89 80.01) (uuid 0f5f4412-6243-4d8a-888a-ab2140ac2b9a))
  (no_connect (at 151.13 67.31) (uuid 26d6840d-3b71-4aa9-a010-559b21c586a9))
  (no_connect (at 161.29 87.63) (uuid a3b9e4c0-feb7-4f91-b0d1-cf162b8bebee))
  (no_connect (at 135.89 107.95) (uuid a4667bb4-5b12-4c84-bdd4-22a82c08dfd4))
  (no_connect (at 161.29 77.47) (uuid b38da862-380f-4da3-b167-253163e82598))
  (no_connect (at 135.89 77.47) (uuid e03989b9-28c1-402d-b57e-7f63f51e2c08))
  (no_connect (at 161.29 80.01) (uuid fbf27a7d-dea9-431e-a428-ce322d0ee1f0))

  (wire (pts (xy 113.03 97.79) (xy 113.03 102.87))
    (stroke (width 0) (type default))
    (uuid 03d5ab2e-52fe-4e99-94d6-35761306b8db)
  )
  (wire (pts (xy 133.35 82.55) (xy 135.89 82.55))
    (stroke (width 0) (type default))
    (uuid 07a1057c-5639-4d7c-8160-730c41cadbc2)
  )
  (wire (pts (xy 153.67 64.77) (xy 153.67 67.31))
    (stroke (width 0) (type default))
    (uuid 07aff3c4-ba3c-48d3-a107-fceeb5792fcd)
  )
  (wire (pts (xy 113.03 102.87) (xy 110.49 102.87))
    (stroke (width 0) (type default))
    (uuid 0d5c97e3-c5c1-411d-b3d6-e38fb51dbffb)
  )
  (wire (pts (xy 161.29 102.87) (xy 163.83 102.87))
    (stroke (width 0) (type default))
    (uuid 1845e869-053d-437e-86ef-4bbb8dfd26ee)
  )
  (wire (pts (xy 91.44 100.965) (xy 88.9 100.965))
    (stroke (width 0) (type default))
    (uuid 1d6ad61c-6d4d-4970-b24d-a96afe3170d8)
  )
  (wire (pts (xy 133.35 95.25) (xy 135.89 95.25))
    (stroke (width 0) (type default))
    (uuid 29dbe564-e9b1-4c20-88f1-39ac20007e8e)
  )
  (wire (pts (xy 148.59 118.11) (xy 151.13 118.11))
    (stroke (width 0) (type default))
    (uuid 4d24548b-347e-4ff1-9534-4ae4f49b39ba)
  )
  (wire (pts (xy 91.44 78.74) (xy 88.9 78.74))
    (stroke (width 0) (type default))
    (uuid 54345fe1-564c-4933-bf5a-d0027aa3a0d9)
  )
  (wire (pts (xy 133.35 100.33) (xy 135.89 100.33))
    (stroke (width 0) (type default))
    (uuid 5778bab8-27f8-4460-a93f-626c7e0cbb22)
  )
  (wire (pts (xy 161.29 97.79) (xy 163.83 97.79))
    (stroke (width 0) (type default))
    (uuid 5b8ef90e-c98a-4263-a8a7-d6f2d37bfa9c)
  )
  (wire (pts (xy 161.29 110.49) (xy 163.83 110.49))
    (stroke (width 0) (type default))
    (uuid 6334dfa0-d03e-4be4-a972-d382ca01f420)
  )
  (wire (pts (xy 161.29 95.25) (xy 163.83 95.25))
    (stroke (width 0) (type default))
    (uuid 74b0de7c-7855-4d14-951e-87a53b01f714)
  )
  (wire (pts (xy 146.05 64.77) (xy 146.05 67.31))
    (stroke (width 0) (type default))
    (uuid 789e6345-2968-43fa-9f75-aa5566695350)
  )
  (wire (pts (xy 133.35 97.79) (xy 135.89 97.79))
    (stroke (width 0) (type default))
    (uuid 7c3d6c98-ef56-4ad0-99bd-435bebce463e)
  )
  (wire (pts (xy 161.29 92.71) (xy 163.83 92.71))
    (stroke (width 0) (type default))
    (uuid 7e3aa239-e420-4783-95da-06feaf1defed)
  )
  (wire (pts (xy 133.35 87.63) (xy 135.89 87.63))
    (stroke (width 0) (type default))
    (uuid 89bd270b-ca50-4898-b7cb-ae75c42d6360)
  )
  (wire (pts (xy 133.35 90.17) (xy 135.89 90.17))
    (stroke (width 0) (type default))
    (uuid a0f89ce3-7e0b-4847-af6c-58d16a6b9b08)
  )
  (wire (pts (xy 161.29 105.41) (xy 163.83 105.41))
    (stroke (width 0) (type default))
    (uuid c36929aa-1af6-4d7f-a6b8-2a7bbb020922)
  )
  (wire (pts (xy 161.29 100.33) (xy 163.83 100.33))
    (stroke (width 0) (type default))
    (uuid cb47db07-7f7d-4bf4-a48a-67f31487ed9a)
  )
  (wire (pts (xy 113.03 88.9) (xy 113.03 90.17))
    (stroke (width 0) (type default))
    (uuid d11eee54-fc68-4308-ab9c-3dbb4167c6d0)
  )
  (wire (pts (xy 135.89 105.41) (xy 133.35 105.41))
    (stroke (width 0) (type default))
    (uuid d6af1cce-ffb4-44a6-bab2-692d272352ba)
  )
  (wire (pts (xy 91.44 92.075) (xy 88.9 92.075))
    (stroke (width 0) (type default))
    (uuid deec2464-3de3-4166-8a0d-b613f39f3f2c)
  )
  (wire (pts (xy 91.44 69.85) (xy 88.9 69.85))
    (stroke (width 0) (type default))
    (uuid e4535a1b-a8cc-4d79-a225-70ad35d53303)
  )
  (wire (pts (xy 135.89 110.49) (xy 133.35 110.49))
    (stroke (width 0) (type default))
    (uuid e97efdb5-3759-4a3b-b2f2-960b2405739c)
  )
  (wire (pts (xy 135.89 102.87) (xy 113.03 102.87))
    (stroke (width 0) (type default))
    (uuid f2584cfd-c754-4e63-86da-e2cd4ccdd34f)
  )
  (wire (pts (xy 161.29 107.95) (xy 163.83 107.95))
    (stroke (width 0) (type default))
    (uuid f436eefc-cfba-47aa-9a82-677c8e0d736a)
  )
  (wire (pts (xy 133.35 85.09) (xy 135.89 85.09))
    (stroke (width 0) (type default))
    (uuid f4e7952b-9c11-4fae-923a-63c0bfb09b3a)
  )
  (wire (pts (xy 133.35 92.71) (xy 135.89 92.71))
    (stroke (width 0) (type default))
    (uuid f6613622-0591-4861-84ca-0c21c08334a1)
  )

  (text "cc-ba-sa\nVincezno Pacella shadux@shaduzlabs.com\nRich Holmes rs.holmes@gmail.com"
    (at 180.34 179.07 0)
    (effects (font (size 2.54 2.54)) (justify left bottom))
    (uuid 468cb593-f2f1-41c8-900d-9edbe6ac49af)
  )

  (global_label "+VIN" (shape input) (at 146.05 64.77 90)
    (effects (font (size 1.27 1.27)) (justify left))
    (uuid 2248fb09-a732-42aa-8def-bcefc8252094)
    (property "Intersheetrefs" "${INTERSHEET_REFS}" (at 146.05 64.77 0)
      (effects (font (size 1.27 1.27)) hide)
    )
  )
  (global_label "VCC" (shape input) (at 113.03 88.9 90)
    (effects (font (size 1.27 1.27)) (justify left))
    (uuid 545e070f-d264-4d88-895f-4c3271e170bc)
    (property "Intersheetrefs" "${INTERSHEET_REFS}" (at 113.03 88.9 0)
      (effects (font (size 1.27 1.27)) hide)
    )
  )
  (global_label "VCC" (shape input) (at 91.44 69.85 0)
    (effects (font (size 1.27 1.27)) (justify left))
    (uuid 8ee7f2e9-5e71-4326-a798-5946fffe080a)
    (property "Intersheetrefs" "${INTERSHEET_REFS}" (at 91.44 69.85 0)
      (effects (font (size 1.27 1.27)) hide)
    )
  )
  (global_label "VCC" (shape output) (at 153.67 64.77 90)
    (effects (font (size 1.27 1.27)) (justify left))
    (uuid bd81f29c-36d6-445a-9d1b-1b5c30c34809)
    (property "Intersheetrefs" "${INTERSHEET_REFS}" (at 153.67 64.77 0)
      (effects (font (size 1.27 1.27)) hide)
    )
  )
  (global_label "VCC" (shape input) (at 91.44 92.075 0)
    (effects (font (size 1.27 1.27)) (justify left))
    (uuid bf357857-2a02-468c-8290-a19ea1b91aee)
    (property "Intersheetrefs" "${INTERSHEET_REFS}" (at 91.44 92.075 0)
      (effects (font (size 1.27 1.27)) hide)
    )
  )
  (global_label "VCC" (shape input) (at 118.11 71.12 0)
    (effects (font (size 1.27 1.27)) (justify left))
    (uuid e47c424d-d0c8-4b52-aa69-7cce9e0c255d)
    (property "Intersheetrefs" "${INTERSHEET_REFS}" (at 118.11 71.12 0)
      (effects (font (size 1.27 1.27)) hide)
    )
  )

  (hierarchical_label "A3" (shape input) (at 163.83 100.33 0)
    (effects (font (size 1.27 1.27)) (justify left))
    (uuid 0b733d07-c85b-467e-8cb5-c3de723abcb0)
  )
  (hierarchical_label "D7" (shape output) (at 133.35 95.25 180)
    (effects (font (size 1.27 1.27)) (justify right))
    (uuid 11e13336-56c1-45d4-a409-9ab883827bc4)
  )
  (hierarchical_label "A2" (shape input) (at 163.83 97.79 0)
    (effects (font (size 1.27 1.27)) (justify left))
    (uuid 28ffac95-cb8a-4f64-8551-a74602c463e9)
  )
  (hierarchical_label "D5" (shape input) (at 133.35 90.17 180)
    (effects (font (size 1.27 1.27)) (justify right))
    (uuid 3b56b502-23da-45a9-bba0-a94a50bc7311)
  )
  (hierarchical_label "A7" (shape input) (at 163.83 110.49 0)
    (effects (font (size 1.27 1.27)) (justify left))
    (uuid 439087cb-1c14-4a4b-9834-b5c13b7a30cc)
  )
  (hierarchical_label "A4" (shape input) (at 163.83 102.87 0)
    (effects (font (size 1.27 1.27)) (justify left))
    (uuid 5875e388-29b2-4ff4-8dc9-0f1a2562eb46)
  )
  (hierarchical_label "D2" (shape input) (at 133.35 82.55 180)
    (effects (font (size 1.27 1.27)) (justify right))
    (uuid 6839970b-a3f8-4593-bcd5-6e46a84ec763)
  )
  (hierarchical_label "A6" (shape input) (at 163.83 107.95 0)
    (effects (font (size 1.27 1.27)) (justify left))
    (uuid 72805e7b-c985-47df-92f4-cd1b59d30d77)
  )
  (hierarchical_label "D9" (shape output) (at 133.35 100.33 180)
    (effects (font (size 1.27 1.27)) (justify right))
    (uuid 83304759-b988-42ff-a6c8-cf2b48ca603e)
  )
  (hierarchical_label "A5" (shape input) (at 163.83 105.41 0)
    (effects (font (size 1.27 1.27)) (justify left))
    (uuid 90a7ab2a-bb07-4219-9c09-8a047de475da)
  )
  (hierarchical_label "DAC_CS" (shape bidirectional) (at 110.49 102.87 180)
    (effects (font (size 1.27 1.27)) (justify right))
    (uuid 9840f4e5-5d88-431f-8c17-3b6d3f3aa46d)
  )
  (hierarchical_label "D4" (shape input) (at 133.35 87.63 180)
    (effects (font (size 1.27 1.27)) (justify right))
    (uuid 9f96bdf4-ff9e-4994-b921-46f48b4bd108)
  )
  (hierarchical_label "D3" (shape input) (at 133.35 85.09 180)
    (effects (font (size 1.27 1.27)) (justify right))
    (uuid a511ca9a-4bf1-44d3-b205-134584c5696b)
  )
  (hierarchical_label "MOSI" (shape bidirectional) (at 133.35 105.41 180)
    (effects (font (size 1.27 1.27)) (justify right))
    (uuid a94efe6b-0733-478c-87c4-342a9c4decd9)
  )
  (hierarchical_label "D8" (shape output) (at 133.35 97.79 180)
    (effects (font (size 1.27 1.27)) (justify right))
    (uuid aafb6567-b669-432e-98cc-02b726157180)
  )
  (hierarchical_label "SCK" (shape bidirectional) (at 133.35 110.49 180)
    (effects (font (size 1.27 1.27)) (justify right))
    (uuid ba8d91c7-04f8-4b6e-b568-3b0a57cb34a9)
  )
  (hierarchical_label "A1" (shape input) (at 163.83 95.25 0)
    (effects (font (size 1.27 1.27)) (justify left))
    (uuid c88e58ed-55d1-4bce-b505-65bc73b20662)
  )
  (hierarchical_label "D6" (shape output) (at 133.35 92.71 180)
    (effects (font (size 1.27 1.27)) (justify right))
    (uuid d3f34f06-31c7-4461-8d71-ba50b47e236b)
  )
  (hierarchical_label "A0" (shape input) (at 163.83 92.71 0)
    (effects (font (size 1.27 1.27)) (justify left))
    (uuid d40f9d25-1d1c-448b-b9bd-8387dba28f06)
  )

  (symbol (lib_id "Device:R") (at 113.03 93.98 0) (mirror y) (unit 1)
    (in_bom yes) (on_board yes) (dnp no)
    (uuid 00000000-0000-0000-0000-00005e89358e)
    (property "Reference" "R?" (at 110.49 92.71 0)
      (effects (font (size 1.4986 1.4986)) (justify left bottom))
    )
    (property "Value" "10k" (at 110.49 95.25 0)
      (effects (font (size 1.4986 1.4986)) (justify left bottom))
    )
    (property "Footprint" "AO_tht:R_Axial_DIN0207_L6.3mm_D2.5mm_P7.62mm_Horizontal" (at 113.03 93.98 0)
      (effects (font (size 1.27 1.27)) hide)
    )
    (property "Datasheet" "" (at 113.03 93.98 0)
      (effects (font (size 1.27 1.27)) hide)
    )
    (pin "1" (uuid 06c04d1a-9af9-499b-8ef1-eabf7ad86c09))
    (pin "2" (uuid 34ec13a1-db99-4332-b159-ba9a75d85ef3))
    (instances
      (project "dac_ino"
        (path "/a3ee3a9b-af42-4cfb-aa19-76386359acdc/00000000-0000-0000-0000-00005e8923a6"
          (reference "R14") (unit 1)
        )
        (path "/a3ee3a9b-af42-4cfb-aa19-76386359acdc"
          (reference "R?") (unit 1)
        )
      )
    )
  )

  (symbol (lib_id "power:GND") (at 151.13 118.11 0) (unit 1)
    (in_bom yes) (on_board yes) (dnp no)
    (uuid 00000000-0000-0000-0000-00005e8935b0)
    (property "Reference" "#PWR?" (at 151.13 124.46 0)
      (effects (font (size 1.27 1.27)) hide)
    )
    (property "Value" "GND" (at 151.257 122.5042 0)
      (effects (font (size 1.27 1.27)))
    )
    (property "Footprint" "" (at 151.13 118.11 0)
      (effects (font (size 1.27 1.27)) hide)
    )
    (property "Datasheet" "" (at 151.13 118.11 0)
      (effects (font (size 1.27 1.27)) hide)
    )
    (pin "1" (uuid 83b8e366-b39d-43cb-aef3-604a3d76d344))
    (instances
      (project "dac_ino"
        (path "/a3ee3a9b-af42-4cfb-aa19-76386359acdc"
          (reference "#PWR?") (unit 1)
        )
        (path "/a3ee3a9b-af42-4cfb-aa19-76386359acdc/00000000-0000-0000-0000-00005e8923a6"
          (reference "#PWR014") (unit 1)
        )
      )
    )
  )

  (symbol (lib_id "MCU_Module:Arduino_Nano_v3.x") (at 148.59 92.71 0) (unit 1)
    (in_bom yes) (on_board yes) (dnp no)
    (uuid 00000000-0000-0000-0000-00005e8935be)
    (property "Reference" "A?" (at 146.05 121.92 0)
      (effects (font (size 1.27 1.27)))
    )
    (property "Value" "Arduino_Nano_v3.x 5V" (at 148.59 124.46 0)
      (effects (font (size 1.27 1.27)))
    )
    (property "Footprint" "AO_tht:Arduino_Nano" (at 148.59 92.71 0)
      (effects (font (size 1.27 1.27) italic) hide)
    )
    (property "Datasheet" "http://www.mouser.com/pdfdocs/Gravitech_Arduino_Nano3_0.pdf" (at 148.59 92.71 0)
      (effects (font (size 1.27 1.27)) hide)
    )
    (pin "1" (uuid 7b386924-8011-4f3c-9ba8-7958a9420c0e))
    (pin "10" (uuid 50196027-bf23-4b31-abec-09a212944e9b))
    (pin "11" (uuid f129aaf3-3f34-4b58-ad1b-d088f595491e))
    (pin "12" (uuid 14196bc2-8f62-4ee0-bb57-7c7ff2072479))
    (pin "13" (uuid 9d590bc8-463a-43d8-83de-d1c9c77f9e8a))
    (pin "14" (uuid ee60c580-3886-43e8-ad50-7f56eb7b43b5))
    (pin "15" (uuid 8d282b04-6f28-45b8-a372-05bf88b2753a))
    (pin "16" (uuid f634b898-7e58-490b-a05b-2fa4b5b3b88c))
    (pin "17" (uuid 1dfd881c-8fc3-494b-9603-769a6ede5ec2))
    (pin "18" (uuid cde8c6ad-8d83-412c-8b5a-4b9a49438192))
    (pin "19" (uuid 5ee1fa18-2a71-45e6-80af-e8d65b53810d))
    (pin "2" (uuid 94a263b9-58b6-4e42-8bd9-7dd24e58d4fe))
    (pin "20" (uuid 27a6d6d5-2463-4c9e-8dc2-004fe5b140f2))
    (pin "21" (uuid dcd5a632-4e9f-426f-9328-50b5d41a9b91))
    (pin "22" (uuid 11f6b86d-4f30-4b67-964a-cdf6208d5636))
    (pin "23" (uuid 6c80bf4b-9088-4094-9c4c-24e01e8fcc60))
    (pin "24" (uuid 9b564e26-86ff-4825-b926-18e56bd65898))
    (pin "25" (uuid 88950c54-e503-4fc2-9b3c-ad639cfc9c6e))
    (pin "26" (uuid be4708ed-ee0d-4e06-ac0a-21a1793f6d2c))
    (pin "27" (uuid 54e85d71-6572-43da-b254-dba2516ee317))
    (pin "28" (uuid 4e4512c9-1e55-493f-809f-f4d1bb21a955))
    (pin "29" (uuid 879dd1f6-f2a9-4753-99ed-7c1fccfeb085))
    (pin "3" (uuid 2a3ee092-1605-4a61-b2b1-9c2e305e4a1d))
    (pin "30" (uuid addc485a-3161-4474-89c5-46f18a0b565e))
    (pin "4" (uuid 921ebf15-8558-42fb-8a3d-660c800cafe3))
    (pin "5" (uuid bb7e95f2-c5de-4d5a-873f-1babd709310b))
    (pin "6" (uuid 821744f3-9d45-4ae2-b20e-88959d5a1b39))
    (pin "7" (uuid a11eabeb-2c9f-4df3-a8e7-6c29bafffeed))
    (pin "8" (uuid cfc27a8b-5c07-4a87-867b-89cee34a04e8))
    (pin "9" (uuid 8fa96cb8-ac4d-443a-8cd1-6748bd833a32))
    (instances
      (project "dac_ino"
        (path "/a3ee3a9b-af42-4cfb-aa19-76386359acdc"
          (reference "A?") (unit 1)
        )
        (path "/a3ee3a9b-af42-4cfb-aa19-76386359acdc/00000000-0000-0000-0000-00005e8923a6"
          (reference "A1") (unit 1)
        )
      )
    )
  )

  (symbol (lib_id "power:GND") (at 118.11 73.66 0) (unit 1)
    (in_bom yes) (on_board yes) (dnp no)
    (uuid 00000000-0000-0000-0000-00005e8935d2)
    (property "Reference" "#PWR?" (at 118.11 80.01 0)
      (effects (font (size 1.27 1.27)) hide)
    )
    (property "Value" "GND" (at 118.237 78.0542 0)
      (effects (font (size 1.27 1.27)))
    )
    (property "Footprint" "" (at 118.11 73.66 0)
      (effects (font (size 1.27 1.27)) hide)
    )
    (property "Datasheet" "" (at 118.11 73.66 0)
      (effects (font (size 1.27 1.27)) hide)
    )
    (pin "1" (uuid 191c9a85-7ae4-4c5e-88ad-0e5d425eb6d8))
    (instances
      (project "dac_ino"
        (path "/a3ee3a9b-af42-4cfb-aa19-76386359acdc"
          (reference "#PWR?") (unit 1)
        )
        (path "/a3ee3a9b-af42-4cfb-aa19-76386359acdc/00000000-0000-0000-0000-00005e8923a6"
          (reference "#PWR013") (unit 1)
        )
      )
    )
  )

  (symbol (lib_id "Connector_Generic:Conn_01x02") (at 113.03 71.12 0) (mirror y) (unit 1)
    (in_bom yes) (on_board yes) (dnp no)
    (uuid 00000000-0000-0000-0000-00005e8935d8)
    (property "Reference" "J?" (at 115.1128 65.6082 0)
      (effects (font (size 1.27 1.27)))
    )
    (property "Value" "Molex 2 pin VCC " (at 115.1128 67.9196 0)
      (effects (font (size 1.27 1.27)))
    )
    (property "Footprint" "AO_tht:Molex_KK-254_AE-6410-02A_1x02_P2.54mm_Vertical" (at 113.03 71.12 0)
      (effects (font (size 1.27 1.27)) hide)
    )
    (property "Datasheet" "~" (at 113.03 71.12 0)
      (effects (font (size 1.27 1.27)) hide)
    )
    (pin "1" (uuid ac73b26c-ffe4-4ccc-bad6-62a0dd48a6e5))
    (pin "2" (uuid 9fd446e7-f42c-4764-bf0e-3b293d4b9711))
    (instances
      (project "dac_ino"
        (path "/a3ee3a9b-af42-4cfb-aa19-76386359acdc"
          (reference "J?") (unit 1)
        )
        (path "/a3ee3a9b-af42-4cfb-aa19-76386359acdc/00000000-0000-0000-0000-00005e8923a6"
          (reference "J8") (unit 1)
        )
      )
    )
  )

  (symbol (lib_id "dac_ino:Conn_01x01_Units") (at 83.82 69.85 180) (unit 3)
    (in_bom yes) (on_board yes) (dnp no)
    (uuid 00000000-0000-0000-0000-00005ec35edb)
    (property "Reference" "J?" (at 85.9028 64.135 0)
      (effects (font (size 1.27 1.27)))
    )
    (property "Value" "Conn_01x01_Units" (at 85.9028 66.4464 0)
      (effects (font (size 1.27 1.27)))
    )
    (property "Footprint" "AO_tht:PinHeader_1x08_P2.54mm_Vertical" (at 83.82 69.85 0)
      (effects (font (size 1.27 1.27)) hide)
    )
    (property "Datasheet" "~" (at 83.82 69.85 0)
      (effects (font (size 1.27 1.27)) hide)
    )
    (pin "1" (uuid 42c3c17b-43bc-4405-94ca-bd3d562cf51b))
    (pin "2" (uuid 15650dd8-efc2-49ca-8116-6b62d2e389a2))
    (pin "3" (uuid e49f3ca3-7e17-46af-94fd-65fcaaccc4a7))
    (pin "4" (uuid 16242960-af98-49b0-88fb-cac46ea79975))
    (pin "5" (uuid 55edc270-1586-47ea-8fdb-7de1bdae549d))
    (pin "6" (uuid 1eb80afa-f233-4e73-a912-3b6dc24952d9))
    (pin "7" (uuid 8c00ba5d-e309-4542-9d34-1248fbe59035))
    (pin "8" (uuid be526876-49c8-485d-a951-f1c5fe0250c5))
    (instances
      (project "dac_ino"
        (path "/a3ee3a9b-af42-4cfb-aa19-76386359acdc/00000000-0000-0000-0000-00005e86bfc7/00000000-0000-0000-0000-00005e8670b9"
          (reference "J?") (unit 3)
        )
        (path "/a3ee3a9b-af42-4cfb-aa19-76386359acdc/00000000-0000-0000-0000-00005e86bfc7/00000000-0000-0000-0000-00005e845115"
          (reference "J?") (unit 2)
        )
        (path "/a3ee3a9b-af42-4cfb-aa19-76386359acdc/00000000-0000-0000-0000-00005e86bfc7/00000000-0000-0000-0000-00005e8150c7"
          (reference "J?") (unit 1)
        )
        (path "/a3ee3a9b-af42-4cfb-aa19-76386359acdc/00000000-0000-0000-0000-00005e8923a6"
          (reference "J7") (unit 2)
        )
        (path "/a3ee3a9b-af42-4cfb-aa19-76386359acdc/00000000-0000-0000-0000-00005e86bfc7/00000000-0000-0000-0000-00005e867ac0"
          (reference "J?") (unit 4)
        )
      )
    )
  )

  (symbol (lib_id "dac_ino:Conn_01x01_Units") (at 83.82 78.74 180) (unit 3)
    (in_bom yes) (on_board yes) (dnp no)
    (uuid 00000000-0000-0000-0000-00005ec3679d)
    (property "Reference" "J?" (at 85.9028 73.025 0)
      (effects (font (size 1.27 1.27)))
    )
    (property "Value" "Conn_01x01_Units" (at 85.9028 75.3364 0)
      (effects (font (size 1.27 1.27)))
    )
    (property "Footprint" "AO_tht:PinHeader_1x08_P2.54mm_Vertical" (at 83.82 78.74 0)
      (effects (font (size 1.27 1.27)) hide)
    )
    (property "Datasheet" "~" (at 83.82 78.74 0)
      (effects (font (size 1.27 1.27)) hide)
    )
    (pin "1" (uuid df202e29-6422-4e58-832a-e03e84760e8c))
    (pin "2" (uuid c471dc64-b6eb-4b27-a75d-204253e02be5))
    (pin "3" (uuid d304a744-e051-42f1-8a52-4a9228f8ae79))
    (pin "4" (uuid ad7103ca-1154-40b2-8bd7-dfdc20c438f8))
    (pin "5" (uuid 89d5874e-687f-4a2c-ad59-337edd8bfdee))
    (pin "6" (uuid cbef0743-73bd-4dc6-93a7-3a8d2be4e7b0))
    (pin "7" (uuid 7966cff5-6a22-43f1-86bd-f3a9c73a064c))
    (pin "8" (uuid 09188c87-79b2-4de7-8ea8-c0500fd86c63))
    (instances
      (project "dac_ino"
        (path "/a3ee3a9b-af42-4cfb-aa19-76386359acdc/00000000-0000-0000-0000-00005e86bfc7/00000000-0000-0000-0000-00005e8670b9"
          (reference "J?") (unit 3)
        )
        (path "/a3ee3a9b-af42-4cfb-aa19-76386359acdc/00000000-0000-0000-0000-00005e86bfc7/00000000-0000-0000-0000-00005e845115"
          (reference "J?") (unit 2)
        )
        (path "/a3ee3a9b-af42-4cfb-aa19-76386359acdc/00000000-0000-0000-0000-00005e86bfc7/00000000-0000-0000-0000-00005e8150c7"
          (reference "J?") (unit 1)
        )
        (path "/a3ee3a9b-af42-4cfb-aa19-76386359acdc/00000000-0000-0000-0000-00005e8923a6"
          (reference "J7") (unit 1)
        )
        (path "/a3ee3a9b-af42-4cfb-aa19-76386359acdc/00000000-0000-0000-0000-00005e86bfc7/00000000-0000-0000-0000-00005e867ac0"
          (reference "J?") (unit 4)
        )
      )
    )
  )

  (symbol (lib_id "power:GND") (at 91.44 78.74 0) (unit 1)
    (in_bom yes) (on_board yes) (dnp no)
    (uuid 00000000-0000-0000-0000-00005ec36d19)
    (property "Reference" "#PWR?" (at 91.44 85.09 0)
      (effects (font (size 1.27 1.27)) hide)
    )
    (property "Value" "GND" (at 91.567 83.1342 0)
      (effects (font (size 1.27 1.27)))
    )
    (property "Footprint" "" (at 91.44 78.74 0)
      (effects (font (size 1.27 1.27)) hide)
    )
    (property "Datasheet" "" (at 91.44 78.74 0)
      (effects (font (size 1.27 1.27)) hide)
    )
    (pin "1" (uuid fd428fd5-ea9f-4600-ad3e-7ce5d4f0f7c2))
    (instances
      (project "dac_ino"
        (path "/a3ee3a9b-af42-4cfb-aa19-76386359acdc"
          (reference "#PWR?") (unit 1)
        )
        (path "/a3ee3a9b-af42-4cfb-aa19-76386359acdc/00000000-0000-0000-0000-00005e8923a6"
          (reference "#PWR012") (unit 1)
        )
      )
    )
  )

  (symbol (lib_id "dac_ino:Conn_01x01_Units") (at 83.82 92.075 180) (unit 3)
    (in_bom yes) (on_board yes) (dnp no)
    (uuid 00000000-0000-0000-0000-00005ec4878d)
    (property "Reference" "J?" (at 85.9028 86.36 0)
      (effects (font (size 1.27 1.27)))
    )
    (property "Value" "Conn_01x01_Units" (at 85.9028 88.6714 0)
      (effects (font (size 1.27 1.27)))
    )
    (property "Footprint" "AO_tht:PinHeader_1x08_P2.54mm_Vertical" (at 83.82 92.075 0)
      (effects (font (size 1.27 1.27)) hide)
    )
    (property "Datasheet" "~" (at 83.82 92.075 0)
      (effects (font (size 1.27 1.27)) hide)
    )
    (pin "1" (uuid 14b0c81a-49ca-4e96-bce4-85b6d6cb7c79))
    (pin "2" (uuid c1eda4af-376b-4650-b2fb-bca4a8d7c0d0))
    (pin "3" (uuid b509c3ba-8b13-4a11-900b-33db9698ba0f))
    (pin "4" (uuid eb8a7a24-c811-4d92-84e5-cd49fb889fc7))
    (pin "5" (uuid 2c61f4bb-0445-4245-9180-37e2a515479d))
    (pin "6" (uuid 9a1bae72-60e1-429d-8a35-245c72a113e6))
    (pin "7" (uuid a91678e5-30c4-408c-b567-7554aec5c843))
    (pin "8" (uuid 3ab41d99-488e-4ba2-a9b1-47c9a979a32f))
    (instances
      (project "dac_ino"
        (path "/a3ee3a9b-af42-4cfb-aa19-76386359acdc/00000000-0000-0000-0000-00005e86bfc7/00000000-0000-0000-0000-00005e8670b9"
          (reference "J?") (unit 3)
        )
        (path "/a3ee3a9b-af42-4cfb-aa19-76386359acdc/00000000-0000-0000-0000-00005e86bfc7/00000000-0000-0000-0000-00005e845115"
          (reference "J?") (unit 2)
        )
        (path "/a3ee3a9b-af42-4cfb-aa19-76386359acdc/00000000-0000-0000-0000-00005e86bfc7/00000000-0000-0000-0000-00005e8150c7"
          (reference "J?") (unit 1)
        )
        (path "/a3ee3a9b-af42-4cfb-aa19-76386359acdc/00000000-0000-0000-0000-00005e8923a6"
          (reference "J14") (unit 7)
        )
        (path "/a3ee3a9b-af42-4cfb-aa19-76386359acdc/00000000-0000-0000-0000-00005e86bfc7/00000000-0000-0000-0000-00005e867ac0"
          (reference "J?") (unit 4)
        )
      )
    )
  )

  (symbol (lib_id "dac_ino:Conn_01x01_Units") (at 83.82 100.965 180) (unit 3)
    (in_bom yes) (on_board yes) (dnp no)
    (uuid 00000000-0000-0000-0000-00005ec48794)
    (property "Reference" "J?" (at 85.9028 95.25 0)
      (effects (font (size 1.27 1.27)))
    )
    (property "Value" "Conn_01x01_Units" (at 85.9028 97.5614 0)
      (effects (font (size 1.27 1.27)))
    )
    (property "Footprint" "AO_tht:PinHeader_1x08_P2.54mm_Vertical" (at 83.82 100.965 0)
      (effects (font (size 1.27 1.27)) hide)
    )
    (property "Datasheet" "~" (at 83.82 100.965 0)
      (effects (font (size 1.27 1.27)) hide)
    )
    (pin "1" (uuid 9b9a2842-5e82-41ad-807b-42deb9528de1))
    (pin "2" (uuid a6a849c1-d623-4f81-a135-b7cfeebb9ec0))
    (pin "3" (uuid 8fc18b63-4b69-4386-9993-10bbe0b47f9e))
    (pin "4" (uuid 1ca94315-f2bb-4f9e-a775-10b18a7da022))
    (pin "5" (uuid 6b85a2f3-7168-44ef-9bc5-e33472629994))
    (pin "6" (uuid 57d71459-8c04-4c30-a613-b573cec5cc63))
    (pin "7" (uuid 24b11a25-17f5-45ae-abc8-7e45d5f274b2))
    (pin "8" (uuid 5dbe8774-ec55-47ea-af77-be1fe357d8de))
    (instances
      (project "dac_ino"
        (path "/a3ee3a9b-af42-4cfb-aa19-76386359acdc/00000000-0000-0000-0000-00005e86bfc7/00000000-0000-0000-0000-00005e8670b9"
          (reference "J?") (unit 3)
        )
        (path "/a3ee3a9b-af42-4cfb-aa19-76386359acdc/00000000-0000-0000-0000-00005e86bfc7/00000000-0000-0000-0000-00005e845115"
          (reference "J?") (unit 2)
        )
        (path "/a3ee3a9b-af42-4cfb-aa19-76386359acdc/00000000-0000-0000-0000-00005e86bfc7/00000000-0000-0000-0000-00005e8150c7"
          (reference "J?") (unit 1)
        )
        (path "/a3ee3a9b-af42-4cfb-aa19-76386359acdc/00000000-0000-0000-0000-00005e8923a6"
          (reference "J14") (unit 8)
        )
        (path "/a3ee3a9b-af42-4cfb-aa19-76386359acdc/00000000-0000-0000-0000-00005e86bfc7/00000000-0000-0000-0000-00005e867ac0"
          (reference "J?") (unit 4)
        )
      )
    )
  )

  (symbol (lib_id "power:GND") (at 91.44 100.965 0) (unit 1)
    (in_bom yes) (on_board yes) (dnp no)
    (uuid 00000000-0000-0000-0000-00005ec4879c)
    (property "Reference" "#PWR?" (at 91.44 107.315 0)
      (effects (font (size 1.27 1.27)) hide)
    )
    (property "Value" "GND" (at 91.567 105.3592 0)
      (effects (font (size 1.27 1.27)))
    )
    (property "Footprint" "" (at 91.44 100.965 0)
      (effects (font (size 1.27 1.27)) hide)
    )
    (property "Datasheet" "" (at 91.44 100.965 0)
      (effects (font (size 1.27 1.27)) hide)
    )
    (pin "1" (uuid 53a78f45-48ed-4507-bb16-88cb90b12d56))
    (instances
      (project "dac_ino"
        (path "/a3ee3a9b-af42-4cfb-aa19-76386359acdc"
          (reference "#PWR?") (unit 1)
        )
        (path "/a3ee3a9b-af42-4cfb-aa19-76386359acdc/00000000-0000-0000-0000-00005e8923a6"
          (reference "#PWR0101") (unit 1)
        )
      )
    )
  )
)
