EESchema Schematic File Version 4
EELAYER 30 0
EELAYER END
$Descr A4 11693 8268
encoding utf-8
Sheet 12 16
Title ""
Date ""
Rev ""
Comp ""
Comment1 ""
Comment2 ""
Comment3 ""
Comment4 ""
$EndDescr
$Comp
L Device:R R?
U 1 1 5E8C4942
P 5400 3700
AR Path="/5E86BFC7/5E8C4942" Ref="R?"  Part="1" 
AR Path="/5E86BFC7/5E895183/5E8C4942" Ref="R22"  Part="1" 
AR Path="/5E86BFC7/5E8954B7/5E8C4942" Ref="R21"  Part="1" 
AR Path="/5E86BFC7/5E895B53/5E8C4942" Ref="R?"  Part="1" 
AR Path="/5E86BFC7/5E8B4F54/5E8C4942" Ref="R?"  Part="1" 
AR Path="/5E86BFC7/5E8B4FDC/5E8C4942" Ref="R?"  Part="1" 
AR Path="/5E86BFC7/5E8B51E5/5E8C4942" Ref="R?"  Part="1" 
AR Path="/5E86BFC7/5E974F2E/5E8C4942" Ref="R23"  Part="1" 
AR Path="/5E86BFC7/5E974F9E/5E8C4942" Ref="R24"  Part="1" 
F 0 "R22" V 5193 3700 50  0000 C CNN
F 1 "1k" V 5284 3700 50  0000 C CNN
F 2 "AO_tht:R_Axial_DIN0207_L6.3mm_D2.5mm_P7.62mm_Horizontal" V 5330 3700 50  0001 C CNN
F 3 "~" H 5400 3700 50  0001 C CNN
	1    5400 3700
	0    1    1    0   
$EndComp
Wire Wire Line
	5550 3700 5750 3700
Wire Wire Line
	5250 3700 5050 3700
$Comp
L Diode:1N5817 D?
U 1 1 5E8C494B
P 5750 3850
AR Path="/5E86BFC7/5E8C494B" Ref="D?"  Part="1" 
AR Path="/5E86BFC7/5E895183/5E8C494B" Ref="D6"  Part="1" 
AR Path="/5E86BFC7/5E8954B7/5E8C494B" Ref="D4"  Part="1" 
AR Path="/5E86BFC7/5E895B53/5E8C494B" Ref="D?"  Part="1" 
AR Path="/5E86BFC7/5E8B4F54/5E8C494B" Ref="D?"  Part="1" 
AR Path="/5E86BFC7/5E8B4FDC/5E8C494B" Ref="D?"  Part="1" 
AR Path="/5E86BFC7/5E8B51E5/5E8C494B" Ref="D?"  Part="1" 
AR Path="/5E86BFC7/5E974F2E/5E8C494B" Ref="D8"  Part="1" 
AR Path="/5E86BFC7/5E974F9E/5E8C494B" Ref="D10"  Part="1" 
F 0 "D6" V 5704 3929 50  0000 L CNN
F 1 "1N5817" V 5795 3929 50  0000 L CNN
F 2 "AO_tht:D_DO-41_SOD81_P7.62mm_Horizontal" H 5750 3675 50  0001 C CNN
F 3 "http://www.vishay.com/docs/88525/1n5817.pdf" H 5750 3850 50  0001 C CNN
	1    5750 3850
	0    1    1    0   
$EndComp
$Comp
L Diode:1N5817 D?
U 1 1 5E8C4951
P 5750 3550
AR Path="/5E86BFC7/5E8C4951" Ref="D?"  Part="1" 
AR Path="/5E86BFC7/5E895183/5E8C4951" Ref="D5"  Part="1" 
AR Path="/5E86BFC7/5E8954B7/5E8C4951" Ref="D3"  Part="1" 
AR Path="/5E86BFC7/5E895B53/5E8C4951" Ref="D?"  Part="1" 
AR Path="/5E86BFC7/5E8B4F54/5E8C4951" Ref="D?"  Part="1" 
AR Path="/5E86BFC7/5E8B4FDC/5E8C4951" Ref="D?"  Part="1" 
AR Path="/5E86BFC7/5E8B51E5/5E8C4951" Ref="D?"  Part="1" 
AR Path="/5E86BFC7/5E974F2E/5E8C4951" Ref="D7"  Part="1" 
AR Path="/5E86BFC7/5E974F9E/5E8C4951" Ref="D9"  Part="1" 
F 0 "D5" V 5704 3629 50  0000 L CNN
F 1 "1N5817" V 5795 3629 50  0000 L CNN
F 2 "AO_tht:D_DO-41_SOD81_P7.62mm_Horizontal" H 5750 3375 50  0001 C CNN
F 3 "http://www.vishay.com/docs/88525/1n5817.pdf" H 5750 3550 50  0001 C CNN
	1    5750 3550
	0    1    1    0   
$EndComp
Connection ~ 5750 3700
Text GLabel 5750 3400 1    50   Input ~ 0
VCC
$Comp
L power:GND #PWR?
U 1 1 5E8C4959
P 5750 4000
AR Path="/5E86BFC7/5E8C4959" Ref="#PWR?"  Part="1" 
AR Path="/5E86BFC7/5E895183/5E8C4959" Ref="#PWR026"  Part="1" 
AR Path="/5E86BFC7/5E8954B7/5E8C4959" Ref="#PWR024"  Part="1" 
AR Path="/5E86BFC7/5E895B53/5E8C4959" Ref="#PWR?"  Part="1" 
AR Path="/5E86BFC7/5E8B4F54/5E8C4959" Ref="#PWR?"  Part="1" 
AR Path="/5E86BFC7/5E8B4FDC/5E8C4959" Ref="#PWR?"  Part="1" 
AR Path="/5E86BFC7/5E8B51E5/5E8C4959" Ref="#PWR?"  Part="1" 
AR Path="/5E86BFC7/5E974F2E/5E8C4959" Ref="#PWR028"  Part="1" 
AR Path="/5E86BFC7/5E974F9E/5E8C4959" Ref="#PWR030"  Part="1" 
F 0 "#PWR026" H 5750 3750 50  0001 C CNN
F 1 "GND" H 5755 3827 50  0000 C CNN
F 2 "" H 5750 4000 50  0001 C CNN
F 3 "" H 5750 4000 50  0001 C CNN
	1    5750 4000
	1    0    0    -1  
$EndComp
Wire Wire Line
	5750 3700 6150 3700
Wire Wire Line
	4000 3700 3900 3700
$Comp
L Connector_Generic:Conn_01x02 J?
U 1 1 5E8CACEE
P 3700 3700
AR Path="/5E86BFC7/5E8CACEE" Ref="J?"  Part="1" 
AR Path="/5E86BFC7/5E895183/5E8CACEE" Ref="J16"  Part="1" 
AR Path="/5E86BFC7/5E8954B7/5E8CACEE" Ref="J15"  Part="1" 
AR Path="/5E86BFC7/5E895B53/5E8CACEE" Ref="J?"  Part="1" 
AR Path="/5E86BFC7/5E8B4F54/5E8CACEE" Ref="J?"  Part="1" 
AR Path="/5E86BFC7/5E8B4FDC/5E8CACEE" Ref="J?"  Part="1" 
AR Path="/5E86BFC7/5E8B51E5/5E8CACEE" Ref="J?"  Part="1" 
AR Path="/5E86BFC7/5E974F2E/5E8CACEE" Ref="J17"  Part="1" 
AR Path="/5E86BFC7/5E974F9E/5E8CACEE" Ref="J18"  Part="1" 
F 0 "J16" H 3780 3692 50  0000 L CNN
F 1 "Molex 2 pin CV IN" H 3780 3601 50  0000 L CNN
F 2 "AO_tht:Molex_KK-254_AE-6410-02A_1x02_P2.54mm_Vertical" H 3700 3700 50  0001 C CNN
F 3 "~" H 3700 3700 50  0001 C CNN
	1    3700 3700
	-1   0    0    -1  
$EndComp
$Comp
L power:GND #PWR?
U 1 1 5E8CACF4
P 3900 3800
AR Path="/5E86BFC7/5E8CACF4" Ref="#PWR?"  Part="1" 
AR Path="/5E86BFC7/5E895183/5E8CACF4" Ref="#PWR025"  Part="1" 
AR Path="/5E86BFC7/5E8954B7/5E8CACF4" Ref="#PWR023"  Part="1" 
AR Path="/5E86BFC7/5E895B53/5E8CACF4" Ref="#PWR?"  Part="1" 
AR Path="/5E86BFC7/5E8B4F54/5E8CACF4" Ref="#PWR?"  Part="1" 
AR Path="/5E86BFC7/5E8B4FDC/5E8CACF4" Ref="#PWR?"  Part="1" 
AR Path="/5E86BFC7/5E8B51E5/5E8CACF4" Ref="#PWR?"  Part="1" 
AR Path="/5E86BFC7/5E974F2E/5E8CACF4" Ref="#PWR027"  Part="1" 
AR Path="/5E86BFC7/5E974F9E/5E8CACF4" Ref="#PWR029"  Part="1" 
F 0 "#PWR025" H 3900 3550 50  0001 C CNN
F 1 "GND" H 3905 3627 50  0000 C CNN
F 2 "" H 3900 3800 50  0001 C CNN
F 3 "" H 3900 3800 50  0001 C CNN
	1    3900 3800
	-1   0    0    -1  
$EndComp
Text HLabel 6150 3700 2    50   Output ~ 0
A_IN
Text Label 3950 3700 0    50   ~ 0
CV_IN
Text Label 5100 3700 2    50   ~ 0
CV_IN
Text Notes 7050 7050 0    100  ~ 0
cc-ba-sa\nVincezno Pacella shadux@shaduzlabs.com\nRich Holmes rs.holmes@gmail.com
$Comp
L dac_ino:Conn_01x01_Units J14
U 1 1 5EC41068
P 3700 4300
AR Path="/5E86BFC7/5E895183/5EC41068" Ref="J14"  Part="1" 
AR Path="/5E86BFC7/5E8954B7/5EC41068" Ref="J14"  Part="2" 
AR Path="/5E86BFC7/5E974F2E/5EC41068" Ref="J14"  Part="3" 
AR Path="/5E86BFC7/5E974F9E/5EC41068" Ref="J14"  Part="4" 
F 0 "J14" H 3618 4517 50  0000 C CNN
F 1 "Conn_01x01_Units" H 3618 4426 50  0000 C CNN
F 2 "AO_tht:PinHeader_1x08_P2.54mm_Vertical" H 3700 4300 50  0001 C CNN
F 3 "~" H 3700 4300 50  0001 C CNN
	1    3700 4300
	-1   0    0    -1  
$EndComp
Wire Wire Line
	4000 4300 3900 4300
Text Label 3950 4300 0    50   ~ 0
CV_IN
$EndSCHEMATC
