(kicad_sch (version 20230121) (generator eeschema)

  (uuid 31e6e3fc-9c07-42f6-bc19-99114cdf5ef7)

  (paper "A4")

  (lib_symbols
    (symbol "Connector_Generic:Conn_01x02" (pin_names (offset 1.016) hide) (in_bom yes) (on_board yes)
      (property "Reference" "J" (at 0 2.54 0)
        (effects (font (size 1.27 1.27)))
      )
      (property "Value" "Conn_01x02" (at 0 -5.08 0)
        (effects (font (size 1.27 1.27)))
      )
      (property "Footprint" "" (at 0 0 0)
        (effects (font (size 1.27 1.27)) hide)
      )
      (property "Datasheet" "~" (at 0 0 0)
        (effects (font (size 1.27 1.27)) hide)
      )
      (property "ki_keywords" "connector" (at 0 0 0)
        (effects (font (size 1.27 1.27)) hide)
      )
      (property "ki_description" "Generic connector, single row, 01x02, script generated (kicad-library-utils/schlib/autogen/connector/)" (at 0 0 0)
        (effects (font (size 1.27 1.27)) hide)
      )
      (property "ki_fp_filters" "Connector*:*_1x??_*" (at 0 0 0)
        (effects (font (size 1.27 1.27)) hide)
      )
      (symbol "Conn_01x02_1_1"
        (rectangle (start -1.27 -2.413) (end 0 -2.667)
          (stroke (width 0.1524) (type default))
          (fill (type none))
        )
        (rectangle (start -1.27 0.127) (end 0 -0.127)
          (stroke (width 0.1524) (type default))
          (fill (type none))
        )
        (rectangle (start -1.27 1.27) (end 1.27 -3.81)
          (stroke (width 0.254) (type default))
          (fill (type background))
        )
        (pin passive line (at -5.08 0 0) (length 3.81)
          (name "Pin_1" (effects (font (size 1.27 1.27))))
          (number "1" (effects (font (size 1.27 1.27))))
        )
        (pin passive line (at -5.08 -2.54 0) (length 3.81)
          (name "Pin_2" (effects (font (size 1.27 1.27))))
          (number "2" (effects (font (size 1.27 1.27))))
        )
      )
    )
    (symbol "Device:R" (pin_numbers hide) (pin_names (offset 0)) (in_bom yes) (on_board yes)
      (property "Reference" "R" (at 2.032 0 90)
        (effects (font (size 1.27 1.27)))
      )
      (property "Value" "R" (at 0 0 90)
        (effects (font (size 1.27 1.27)))
      )
      (property "Footprint" "" (at -1.778 0 90)
        (effects (font (size 1.27 1.27)) hide)
      )
      (property "Datasheet" "~" (at 0 0 0)
        (effects (font (size 1.27 1.27)) hide)
      )
      (property "ki_keywords" "R res resistor" (at 0 0 0)
        (effects (font (size 1.27 1.27)) hide)
      )
      (property "ki_description" "Resistor" (at 0 0 0)
        (effects (font (size 1.27 1.27)) hide)
      )
      (property "ki_fp_filters" "R_*" (at 0 0 0)
        (effects (font (size 1.27 1.27)) hide)
      )
      (symbol "R_0_1"
        (rectangle (start -1.016 -2.54) (end 1.016 2.54)
          (stroke (width 0.254) (type default))
          (fill (type none))
        )
      )
      (symbol "R_1_1"
        (pin passive line (at 0 3.81 270) (length 1.27)
          (name "~" (effects (font (size 1.27 1.27))))
          (number "1" (effects (font (size 1.27 1.27))))
        )
        (pin passive line (at 0 -3.81 90) (length 1.27)
          (name "~" (effects (font (size 1.27 1.27))))
          (number "2" (effects (font (size 1.27 1.27))))
        )
      )
    )
    (symbol "Transistor_BJT:2N3904" (pin_names (offset 0) hide) (in_bom yes) (on_board yes)
      (property "Reference" "Q" (at 5.08 1.905 0)
        (effects (font (size 1.27 1.27)) (justify left))
      )
      (property "Value" "2N3904" (at 5.08 0 0)
        (effects (font (size 1.27 1.27)) (justify left))
      )
      (property "Footprint" "Package_TO_SOT_THT:TO-92_Inline" (at 5.08 -1.905 0)
        (effects (font (size 1.27 1.27) italic) (justify left) hide)
      )
      (property "Datasheet" "https://www.onsemi.com/pub/Collateral/2N3903-D.PDF" (at 0 0 0)
        (effects (font (size 1.27 1.27)) (justify left) hide)
      )
      (property "ki_keywords" "NPN Transistor" (at 0 0 0)
        (effects (font (size 1.27 1.27)) hide)
      )
      (property "ki_description" "0.2A Ic, 40V Vce, Small Signal NPN Transistor, TO-92" (at 0 0 0)
        (effects (font (size 1.27 1.27)) hide)
      )
      (property "ki_fp_filters" "TO?92*" (at 0 0 0)
        (effects (font (size 1.27 1.27)) hide)
      )
      (symbol "2N3904_0_1"
        (polyline
          (pts
            (xy 0.635 0.635)
            (xy 2.54 2.54)
          )
          (stroke (width 0) (type default))
          (fill (type none))
        )
        (polyline
          (pts
            (xy 0.635 -0.635)
            (xy 2.54 -2.54)
            (xy 2.54 -2.54)
          )
          (stroke (width 0) (type default))
          (fill (type none))
        )
        (polyline
          (pts
            (xy 0.635 1.905)
            (xy 0.635 -1.905)
            (xy 0.635 -1.905)
          )
          (stroke (width 0.508) (type default))
          (fill (type none))
        )
        (polyline
          (pts
            (xy 1.27 -1.778)
            (xy 1.778 -1.27)
            (xy 2.286 -2.286)
            (xy 1.27 -1.778)
            (xy 1.27 -1.778)
          )
          (stroke (width 0) (type default))
          (fill (type outline))
        )
        (circle (center 1.27 0) (radius 2.8194)
          (stroke (width 0.254) (type default))
          (fill (type none))
        )
      )
      (symbol "2N3904_1_1"
        (pin passive line (at 2.54 -5.08 90) (length 2.54)
          (name "E" (effects (font (size 1.27 1.27))))
          (number "1" (effects (font (size 1.27 1.27))))
        )
        (pin passive line (at -5.08 0 0) (length 5.715)
          (name "B" (effects (font (size 1.27 1.27))))
          (number "2" (effects (font (size 1.27 1.27))))
        )
        (pin passive line (at 2.54 5.08 270) (length 2.54)
          (name "C" (effects (font (size 1.27 1.27))))
          (number "3" (effects (font (size 1.27 1.27))))
        )
      )
    )
    (symbol "dac_ino:Conn_01x01_Units" (pin_names (offset 1.016) hide) (in_bom yes) (on_board yes)
      (property "Reference" "J" (at 0 2.54 0)
        (effects (font (size 1.27 1.27)))
      )
      (property "Value" "Conn_01x01_Units" (at 0 -2.54 0)
        (effects (font (size 1.27 1.27)))
      )
      (property "Footprint" "" (at 0 0 0)
        (effects (font (size 1.27 1.27)) hide)
      )
      (property "Datasheet" "~" (at 0 0 0)
        (effects (font (size 1.27 1.27)) hide)
      )
      (property "ki_locked" "" (at 0 0 0)
        (effects (font (size 1.27 1.27)))
      )
      (property "ki_keywords" "connector" (at 0 0 0)
        (effects (font (size 1.27 1.27)) hide)
      )
      (property "ki_description" "Generic connector, single row, 01x01, script generated (kicad-library-utils/schlib/autogen/connector/)" (at 0 0 0)
        (effects (font (size 1.27 1.27)) hide)
      )
      (property "ki_fp_filters" "Connector*:*_1x??_*" (at 0 0 0)
        (effects (font (size 1.27 1.27)) hide)
      )
      (symbol "Conn_01x01_Units_1_1"
        (rectangle (start -1.27 0.127) (end 0 -0.127)
          (stroke (width 0.1524) (type solid))
          (fill (type none))
        )
        (rectangle (start -1.27 1.27) (end 1.27 -1.27)
          (stroke (width 0.254) (type solid))
          (fill (type background))
        )
        (pin passive line (at -5.08 0 0) (length 3.81)
          (name "Pin_1" (effects (font (size 1.27 1.27))))
          (number "1" (effects (font (size 1.27 1.27))))
        )
      )
      (symbol "Conn_01x01_Units_2_1"
        (rectangle (start -1.27 0.127) (end 0 -0.127)
          (stroke (width 0.1524) (type solid))
          (fill (type none))
        )
        (rectangle (start -1.27 1.27) (end 1.27 -1.27)
          (stroke (width 0.254) (type solid))
          (fill (type background))
        )
        (pin passive line (at -5.08 0 0) (length 3.81)
          (name "Pin_2" (effects (font (size 1.27 1.27))))
          (number "2" (effects (font (size 1.27 1.27))))
        )
      )
      (symbol "Conn_01x01_Units_3_1"
        (rectangle (start -1.27 0.127) (end 0 -0.127)
          (stroke (width 0.1524) (type solid))
          (fill (type none))
        )
        (rectangle (start -1.27 1.27) (end 1.27 -1.27)
          (stroke (width 0.254) (type solid))
          (fill (type background))
        )
        (pin passive line (at -5.08 0 0) (length 3.81)
          (name "Pin_3" (effects (font (size 1.27 1.27))))
          (number "3" (effects (font (size 1.27 1.27))))
        )
      )
      (symbol "Conn_01x01_Units_4_1"
        (rectangle (start -1.27 0.127) (end 0 -0.127)
          (stroke (width 0.1524) (type solid))
          (fill (type none))
        )
        (rectangle (start -1.27 1.27) (end 1.27 -1.27)
          (stroke (width 0.254) (type solid))
          (fill (type background))
        )
        (pin passive line (at -5.08 0 0) (length 3.81)
          (name "Pin_4" (effects (font (size 1.27 1.27))))
          (number "4" (effects (font (size 1.27 1.27))))
        )
      )
      (symbol "Conn_01x01_Units_5_1"
        (rectangle (start -1.27 0.127) (end 0 -0.127)
          (stroke (width 0.1524) (type solid))
          (fill (type none))
        )
        (rectangle (start -1.27 1.27) (end 1.27 -1.27)
          (stroke (width 0.254) (type solid))
          (fill (type background))
        )
        (pin passive line (at -5.08 0 0) (length 3.81)
          (name "Pin_5" (effects (font (size 1.27 1.27))))
          (number "5" (effects (font (size 1.27 1.27))))
        )
      )
      (symbol "Conn_01x01_Units_6_1"
        (rectangle (start -1.27 0.127) (end 0 -0.127)
          (stroke (width 0.1524) (type solid))
          (fill (type none))
        )
        (rectangle (start -1.27 1.27) (end 1.27 -1.27)
          (stroke (width 0.254) (type solid))
          (fill (type background))
        )
        (pin passive line (at -5.08 0 0) (length 3.81)
          (name "Pin_6" (effects (font (size 1.27 1.27))))
          (number "6" (effects (font (size 1.27 1.27))))
        )
      )
      (symbol "Conn_01x01_Units_7_1"
        (rectangle (start -1.27 0.127) (end 0 -0.127)
          (stroke (width 0.1524) (type solid))
          (fill (type none))
        )
        (rectangle (start -1.27 1.27) (end 1.27 -1.27)
          (stroke (width 0.254) (type solid))
          (fill (type background))
        )
        (pin passive line (at -5.08 0 0) (length 3.81)
          (name "Pin_7" (effects (font (size 1.27 1.27))))
          (number "7" (effects (font (size 1.27 1.27))))
        )
      )
      (symbol "Conn_01x01_Units_8_1"
        (rectangle (start -1.27 0.127) (end 0 -0.127)
          (stroke (width 0.1524) (type solid))
          (fill (type none))
        )
        (rectangle (start -1.27 1.27) (end 1.27 -1.27)
          (stroke (width 0.254) (type solid))
          (fill (type background))
        )
        (pin passive line (at -5.08 0 0) (length 3.81)
          (name "Pin_8" (effects (font (size 1.27 1.27))))
          (number "8" (effects (font (size 1.27 1.27))))
        )
      )
    )
    (symbol "power:GND" (power) (pin_names (offset 0)) (in_bom yes) (on_board yes)
      (property "Reference" "#PWR" (at 0 -6.35 0)
        (effects (font (size 1.27 1.27)) hide)
      )
      (property "Value" "GND" (at 0 -3.81 0)
        (effects (font (size 1.27 1.27)))
      )
      (property "Footprint" "" (at 0 0 0)
        (effects (font (size 1.27 1.27)) hide)
      )
      (property "Datasheet" "" (at 0 0 0)
        (effects (font (size 1.27 1.27)) hide)
      )
      (property "ki_keywords" "global power" (at 0 0 0)
        (effects (font (size 1.27 1.27)) hide)
      )
      (property "ki_description" "Power symbol creates a global label with name \"GND\" , ground" (at 0 0 0)
        (effects (font (size 1.27 1.27)) hide)
      )
      (symbol "GND_0_1"
        (polyline
          (pts
            (xy 0 0)
            (xy 0 -1.27)
            (xy 1.27 -1.27)
            (xy 0 -2.54)
            (xy -1.27 -1.27)
            (xy 0 -1.27)
          )
          (stroke (width 0) (type default))
          (fill (type none))
        )
      )
      (symbol "GND_1_1"
        (pin power_in line (at 0 0 270) (length 0) hide
          (name "GND" (effects (font (size 1.27 1.27))))
          (number "1" (effects (font (size 1.27 1.27))))
        )
      )
    )
  )

  (junction (at 151.13 96.52) (diameter 0) (color 0 0 0 0)
    (uuid 1e4b67e5-119b-4656-b26a-0e99f9943f95)
  )
  (junction (at 100.33 96.52) (diameter 0) (color 0 0 0 0)
    (uuid 7de6c1f4-4dbb-4334-90dc-4148fcde7494)
  )

  (wire (pts (xy 194.31 136.525) (xy 196.85 136.525))
    (stroke (width 0) (type default))
    (uuid 01a851e7-9174-49f3-ae91-fa8b148114ba)
  )
  (wire (pts (xy 194.31 110.49) (xy 196.85 110.49))
    (stroke (width 0) (type default))
    (uuid 08481e2f-cbbf-4bf4-93be-14623d203ae0)
  )
  (wire (pts (xy 100.33 81.28) (xy 100.33 86.36))
    (stroke (width 0) (type default))
    (uuid 12e312ac-6dd4-48fb-9389-0dc9101ba31d)
  )
  (wire (pts (xy 100.33 96.52) (xy 109.22 96.52))
    (stroke (width 0) (type default))
    (uuid 17a005e5-eda3-4893-bf94-399637c8567c)
  )
  (wire (pts (xy 87.63 104.14) (xy 92.71 104.14))
    (stroke (width 0) (type default))
    (uuid 2d621c28-c269-4e32-ac12-4751e9d601c5)
  )
  (wire (pts (xy 194.31 127) (xy 196.85 127))
    (stroke (width 0) (type default))
    (uuid 5130625e-1dd4-49da-a088-394164f6001b)
  )
  (wire (pts (xy 100.33 109.22) (xy 100.33 120.65))
    (stroke (width 0) (type default))
    (uuid 6418bcc6-556f-487e-bf82-f48a28397b88)
  )
  (wire (pts (xy 151.13 96.52) (xy 151.13 99.06))
    (stroke (width 0) (type default))
    (uuid 6b9e77c3-a74f-4250-852b-042807d6c87b)
  )
  (wire (pts (xy 151.13 81.28) (xy 151.13 86.36))
    (stroke (width 0) (type default))
    (uuid 7228e291-df92-4468-8e00-4f1d217df7dd)
  )
  (wire (pts (xy 151.13 96.52) (xy 160.02 96.52))
    (stroke (width 0) (type default))
    (uuid 7aeebfbc-5e92-4fd1-a005-cffe8c4ad343)
  )
  (wire (pts (xy 151.13 93.98) (xy 151.13 96.52))
    (stroke (width 0) (type default))
    (uuid 7ccad638-684e-4d56-86fe-c356693d956e)
  )
  (wire (pts (xy 138.43 104.14) (xy 143.51 104.14))
    (stroke (width 0) (type default))
    (uuid 87ee7f0f-d8c6-404c-871b-430119fe68e1)
  )
  (wire (pts (xy 151.13 109.22) (xy 151.13 120.65))
    (stroke (width 0) (type default))
    (uuid 95bcf5b8-d9dc-46e1-8ced-72576778279e)
  )
  (wire (pts (xy 194.31 97.79) (xy 196.85 97.79))
    (stroke (width 0) (type default))
    (uuid 9f5f5c57-4019-497c-a58e-dd91febe114c)
  )
  (wire (pts (xy 100.33 96.52) (xy 100.33 99.06))
    (stroke (width 0) (type default))
    (uuid afeff8f5-3b3d-47cd-a7c4-5fda91b88513)
  )
  (wire (pts (xy 100.33 93.98) (xy 100.33 96.52))
    (stroke (width 0) (type default))
    (uuid ce404580-1887-44e3-a378-1025ab3741c2)
  )
  (wire (pts (xy 130.81 104.14) (xy 125.73 104.14))
    (stroke (width 0) (type default))
    (uuid dba1c397-7597-43f2-9fa8-4dd7aaee592b)
  )
  (wire (pts (xy 80.01 104.14) (xy 74.93 104.14))
    (stroke (width 0) (type default))
    (uuid e5306a38-9968-44d1-aa2f-a18cfdea6b98)
  )

  (text "cc-ba-sa\nVincezno Pacella shadux@shaduzlabs.com\nRich Holmes rs.holmes@gmail.com"
    (at 180.34 179.07 0)
    (effects (font (size 2.54 2.54)) (justify left bottom))
    (uuid 6a76dbfd-c529-4feb-b982-7337d67dc201)
  )

  (label "GATE_OUT_B" (at 157.48 96.52 0)
    (effects (font (size 1.27 1.27)) (justify left bottom))
    (uuid 09cc8dd7-d505-4f9e-96a0-62438f622374)
  )
  (label "GATE_OUT_A" (at 194.31 127 180)
    (effects (font (size 1.27 1.27)) (justify right bottom))
    (uuid 2fa57679-c640-4e2c-b0b2-a1b290033b95)
  )
  (label "GATE_OUT_A" (at 106.68 96.52 0)
    (effects (font (size 1.27 1.27)) (justify left bottom))
    (uuid 7b7e13ec-99c5-4ab9-af4f-fec3f813a159)
  )
  (label "GATE_OUT_A" (at 195.58 97.79 180)
    (effects (font (size 1.27 1.27)) (justify right bottom))
    (uuid 87ecf268-aa0b-4bbb-9e42-c2977a20824a)
  )
  (label "GATE_OUT_B" (at 194.31 136.525 180)
    (effects (font (size 1.27 1.27)) (justify right bottom))
    (uuid c2b2ea75-f83c-48ab-af99-9ad938ae0b1f)
  )
  (label "GATE_OUT_B" (at 195.58 110.49 180)
    (effects (font (size 1.27 1.27)) (justify right bottom))
    (uuid d2e218b8-0560-4c33-9848-5d28e420355c)
  )

  (global_label "VCC" (shape input) (at 151.13 81.28 90)
    (effects (font (size 1.27 1.27)) (justify left))
    (uuid 5e43a160-908b-4a09-9fb6-92a0dbcb6bd8)
    (property "Intersheetrefs" "${INTERSHEET_REFS}" (at 151.13 81.28 0)
      (effects (font (size 1.27 1.27)) hide)
    )
  )
  (global_label "VCC" (shape input) (at 100.33 81.28 90)
    (effects (font (size 1.27 1.27)) (justify left))
    (uuid d8985c91-245e-4c59-b03c-5d67fb21f1ba)
    (property "Intersheetrefs" "${INTERSHEET_REFS}" (at 100.33 81.28 0)
      (effects (font (size 1.27 1.27)) hide)
    )
  )

  (hierarchical_label "D6" (shape input) (at 74.93 104.14 180)
    (effects (font (size 1.27 1.27)) (justify right))
    (uuid 45c18eaa-d31a-4fc2-a4f8-da7d7db4e296)
  )
  (hierarchical_label "D7" (shape input) (at 125.73 104.14 180)
    (effects (font (size 1.27 1.27)) (justify right))
    (uuid 57ceb7d3-81bd-4489-845c-b78584af8751)
  )

  (symbol (lib_id "Device:R") (at 83.82 104.14 270) (unit 1)
    (in_bom yes) (on_board yes) (dnp no)
    (uuid 00000000-0000-0000-0000-00005e84cac8)
    (property "Reference" "R10" (at 83.82 98.8822 90)
      (effects (font (size 1.27 1.27)))
    )
    (property "Value" "1k" (at 83.82 101.1936 90)
      (effects (font (size 1.27 1.27)))
    )
    (property "Footprint" "AO_tht:R_Axial_DIN0207_L6.3mm_D2.5mm_P7.62mm_Horizontal" (at 83.82 102.362 90)
      (effects (font (size 1.27 1.27)) hide)
    )
    (property "Datasheet" "~" (at 83.82 104.14 0)
      (effects (font (size 1.27 1.27)) hide)
    )
    (pin "1" (uuid 060f22d9-e2e1-4996-91bc-8510a05e66e5))
    (pin "2" (uuid cfa2351c-432b-483c-991c-5e4a8077ce08))
    (instances
      (project "dac_ino"
        (path "/a3ee3a9b-af42-4cfb-aa19-76386359acdc/00000000-0000-0000-0000-00005e84260a"
          (reference "R10") (unit 1)
        )
      )
    )
  )

  (symbol (lib_id "Device:R") (at 100.33 90.17 180) (unit 1)
    (in_bom yes) (on_board yes) (dnp no)
    (uuid 00000000-0000-0000-0000-00005e84cace)
    (property "Reference" "R11" (at 102.108 89.0016 0)
      (effects (font (size 1.27 1.27)) (justify right))
    )
    (property "Value" "1k" (at 102.108 91.313 0)
      (effects (font (size 1.27 1.27)) (justify right))
    )
    (property "Footprint" "AO_tht:R_Axial_DIN0207_L6.3mm_D2.5mm_P7.62mm_Horizontal" (at 102.108 90.17 90)
      (effects (font (size 1.27 1.27)) hide)
    )
    (property "Datasheet" "~" (at 100.33 90.17 0)
      (effects (font (size 1.27 1.27)) hide)
    )
    (pin "1" (uuid 5d13d331-371f-4b8a-b56a-d2d7ea6adf0a))
    (pin "2" (uuid 44f9a1e9-fa71-4dba-ac62-eec6d0285b1e))
    (instances
      (project "dac_ino"
        (path "/a3ee3a9b-af42-4cfb-aa19-76386359acdc/00000000-0000-0000-0000-00005e84260a"
          (reference "R11") (unit 1)
        )
      )
    )
  )

  (symbol (lib_id "Transistor_BJT:2N3904") (at 97.79 104.14 0) (unit 1)
    (in_bom yes) (on_board yes) (dnp no)
    (uuid 00000000-0000-0000-0000-00005e84cad4)
    (property "Reference" "Q1" (at 102.616 102.9716 0)
      (effects (font (size 1.27 1.27)) (justify left))
    )
    (property "Value" "2N3904" (at 102.616 105.283 0)
      (effects (font (size 1.27 1.27)) (justify left))
    )
    (property "Footprint" "AO_tht:TO-92_Inline_Wide" (at 102.87 106.045 0)
      (effects (font (size 1.27 1.27) italic) (justify left) hide)
    )
    (property "Datasheet" "https://www.fairchildsemi.com/datasheets/2N/2N3904.pdf" (at 97.79 104.14 0)
      (effects (font (size 1.27 1.27)) (justify left) hide)
    )
    (pin "1" (uuid 942994c0-32fe-4490-a6b3-7dde61a86495))
    (pin "2" (uuid 04e7fb6c-8624-4ac8-8495-0552d57ba306))
    (pin "3" (uuid 037b29c1-062e-4c91-89cc-b062b97f8917))
    (instances
      (project "dac_ino"
        (path "/a3ee3a9b-af42-4cfb-aa19-76386359acdc/00000000-0000-0000-0000-00005e84260a"
          (reference "Q1") (unit 1)
        )
      )
    )
  )

  (symbol (lib_id "power:GND") (at 100.33 120.65 0) (unit 1)
    (in_bom yes) (on_board yes) (dnp no)
    (uuid 00000000-0000-0000-0000-00005e84cadb)
    (property "Reference" "#PWR08" (at 100.33 127 0)
      (effects (font (size 1.27 1.27)) hide)
    )
    (property "Value" "GND" (at 100.457 125.0442 0)
      (effects (font (size 1.27 1.27)))
    )
    (property "Footprint" "" (at 100.33 120.65 0)
      (effects (font (size 1.27 1.27)) hide)
    )
    (property "Datasheet" "" (at 100.33 120.65 0)
      (effects (font (size 1.27 1.27)) hide)
    )
    (pin "1" (uuid d625ba7f-f0ef-4a57-aba5-8af7493bacbf))
  )

  (symbol (lib_id "Device:R") (at 134.62 104.14 270) (unit 1)
    (in_bom yes) (on_board yes) (dnp no)
    (uuid 00000000-0000-0000-0000-00005e84caeb)
    (property "Reference" "R12" (at 134.62 98.8822 90)
      (effects (font (size 1.27 1.27)))
    )
    (property "Value" "1k" (at 134.62 101.1936 90)
      (effects (font (size 1.27 1.27)))
    )
    (property "Footprint" "AO_tht:R_Axial_DIN0207_L6.3mm_D2.5mm_P7.62mm_Horizontal" (at 134.62 102.362 90)
      (effects (font (size 1.27 1.27)) hide)
    )
    (property "Datasheet" "~" (at 134.62 104.14 0)
      (effects (font (size 1.27 1.27)) hide)
    )
    (pin "1" (uuid 93c5413e-1246-49dd-b58d-2e18de6416b9))
    (pin "2" (uuid f362b08c-f01a-4d6d-89a6-83b919bf1a89))
    (instances
      (project "dac_ino"
        (path "/a3ee3a9b-af42-4cfb-aa19-76386359acdc/00000000-0000-0000-0000-00005e84260a"
          (reference "R12") (unit 1)
        )
      )
    )
  )

  (symbol (lib_id "Device:R") (at 151.13 90.17 180) (unit 1)
    (in_bom yes) (on_board yes) (dnp no)
    (uuid 00000000-0000-0000-0000-00005e84caf1)
    (property "Reference" "R13" (at 152.908 89.0016 0)
      (effects (font (size 1.27 1.27)) (justify right))
    )
    (property "Value" "1k" (at 152.908 91.313 0)
      (effects (font (size 1.27 1.27)) (justify right))
    )
    (property "Footprint" "AO_tht:R_Axial_DIN0207_L6.3mm_D2.5mm_P7.62mm_Horizontal" (at 152.908 90.17 90)
      (effects (font (size 1.27 1.27)) hide)
    )
    (property "Datasheet" "~" (at 151.13 90.17 0)
      (effects (font (size 1.27 1.27)) hide)
    )
    (pin "1" (uuid 079cba05-34a5-4a68-8f41-e2480485ea3e))
    (pin "2" (uuid c246d949-991b-4fb9-9363-78433ba44345))
    (instances
      (project "dac_ino"
        (path "/a3ee3a9b-af42-4cfb-aa19-76386359acdc/00000000-0000-0000-0000-00005e84260a"
          (reference "R13") (unit 1)
        )
      )
    )
  )

  (symbol (lib_id "Transistor_BJT:2N3904") (at 148.59 104.14 0) (unit 1)
    (in_bom yes) (on_board yes) (dnp no)
    (uuid 00000000-0000-0000-0000-00005e84caf7)
    (property "Reference" "Q2" (at 153.416 102.9716 0)
      (effects (font (size 1.27 1.27)) (justify left))
    )
    (property "Value" "2N3904" (at 153.416 105.283 0)
      (effects (font (size 1.27 1.27)) (justify left))
    )
    (property "Footprint" "AO_tht:TO-92_Inline_Wide" (at 153.67 106.045 0)
      (effects (font (size 1.27 1.27) italic) (justify left) hide)
    )
    (property "Datasheet" "https://www.fairchildsemi.com/datasheets/2N/2N3904.pdf" (at 148.59 104.14 0)
      (effects (font (size 1.27 1.27)) (justify left) hide)
    )
    (pin "1" (uuid 33741d7f-8361-433a-923d-f6c2aad11c0b))
    (pin "2" (uuid abb4ff0e-804c-4a3a-a2f0-c3ea6dd435b7))
    (pin "3" (uuid 2d3ae881-8678-47c9-81c5-9e03f50b20ee))
    (instances
      (project "dac_ino"
        (path "/a3ee3a9b-af42-4cfb-aa19-76386359acdc/00000000-0000-0000-0000-00005e84260a"
          (reference "Q2") (unit 1)
        )
      )
    )
  )

  (symbol (lib_id "power:GND") (at 151.13 120.65 0) (unit 1)
    (in_bom yes) (on_board yes) (dnp no)
    (uuid 00000000-0000-0000-0000-00005e84cafe)
    (property "Reference" "#PWR09" (at 151.13 127 0)
      (effects (font (size 1.27 1.27)) hide)
    )
    (property "Value" "GND" (at 151.257 125.0442 0)
      (effects (font (size 1.27 1.27)))
    )
    (property "Footprint" "" (at 151.13 120.65 0)
      (effects (font (size 1.27 1.27)) hide)
    )
    (property "Datasheet" "" (at 151.13 120.65 0)
      (effects (font (size 1.27 1.27)) hide)
    )
    (pin "1" (uuid 51be9169-7ea3-48b8-a6de-3b90f8d177a7))
  )

  (symbol (lib_id "power:GND") (at 196.85 113.03 0) (unit 1)
    (in_bom yes) (on_board yes) (dnp no)
    (uuid 00000000-0000-0000-0000-00005e84cb0e)
    (property "Reference" "#PWR011" (at 196.85 119.38 0)
      (effects (font (size 1.27 1.27)) hide)
    )
    (property "Value" "GND" (at 196.977 117.4242 0)
      (effects (font (size 1.27 1.27)))
    )
    (property "Footprint" "" (at 196.85 113.03 0)
      (effects (font (size 1.27 1.27)) hide)
    )
    (property "Datasheet" "" (at 196.85 113.03 0)
      (effects (font (size 1.27 1.27)) hide)
    )
    (pin "1" (uuid 256000e6-8ad4-4974-aaca-613e4346d604))
  )

  (symbol (lib_id "power:GND") (at 196.85 100.33 0) (unit 1)
    (in_bom yes) (on_board yes) (dnp no)
    (uuid 00000000-0000-0000-0000-00005e84cb14)
    (property "Reference" "#PWR010" (at 196.85 106.68 0)
      (effects (font (size 1.27 1.27)) hide)
    )
    (property "Value" "GND" (at 196.85 104.14 0)
      (effects (font (size 1.27 1.27)))
    )
    (property "Footprint" "" (at 196.85 100.33 0)
      (effects (font (size 1.27 1.27)) hide)
    )
    (property "Datasheet" "" (at 196.85 100.33 0)
      (effects (font (size 1.27 1.27)) hide)
    )
    (pin "1" (uuid 3922a8ca-2671-4205-beda-92e3cd11a00d))
  )

  (symbol (lib_id "Connector_Generic:Conn_01x02") (at 201.93 97.79 0) (unit 1)
    (in_bom yes) (on_board yes) (dnp no)
    (uuid 00000000-0000-0000-0000-00005e84cb1a)
    (property "Reference" "J5" (at 203.962 97.9932 0)
      (effects (font (size 1.27 1.27)) (justify left))
    )
    (property "Value" "Molex 2 pin GATE OUT" (at 203.962 100.3046 0)
      (effects (font (size 1.27 1.27)) (justify left))
    )
    (property "Footprint" "AO_tht:Molex_KK-254_AE-6410-02A_1x02_P2.54mm_Vertical" (at 201.93 97.79 0)
      (effects (font (size 1.27 1.27)) hide)
    )
    (property "Datasheet" "~" (at 201.93 97.79 0)
      (effects (font (size 1.27 1.27)) hide)
    )
    (pin "1" (uuid 7e853a2a-e96d-4e44-8d12-cd7393072b5f))
    (pin "2" (uuid 77b0a384-4f5c-430f-a385-05d441d96a2d))
    (instances
      (project "dac_ino"
        (path "/a3ee3a9b-af42-4cfb-aa19-76386359acdc/00000000-0000-0000-0000-00005e84260a"
          (reference "J5") (unit 1)
        )
      )
    )
  )

  (symbol (lib_id "Connector_Generic:Conn_01x02") (at 201.93 110.49 0) (unit 1)
    (in_bom yes) (on_board yes) (dnp no)
    (uuid 00000000-0000-0000-0000-00005e84cb20)
    (property "Reference" "J6" (at 203.962 110.6932 0)
      (effects (font (size 1.27 1.27)) (justify left))
    )
    (property "Value" "Molex 2 pin GATE OUT" (at 203.962 113.0046 0)
      (effects (font (size 1.27 1.27)) (justify left))
    )
    (property "Footprint" "AO_tht:Molex_KK-254_AE-6410-02A_1x02_P2.54mm_Vertical" (at 201.93 110.49 0)
      (effects (font (size 1.27 1.27)) hide)
    )
    (property "Datasheet" "~" (at 201.93 110.49 0)
      (effects (font (size 1.27 1.27)) hide)
    )
    (pin "1" (uuid dd0de413-a934-4831-adb1-1eb1cc565e8d))
    (pin "2" (uuid 223d42f1-d2c9-4c0c-b71c-610453236217))
    (instances
      (project "dac_ino"
        (path "/a3ee3a9b-af42-4cfb-aa19-76386359acdc/00000000-0000-0000-0000-00005e84260a"
          (reference "J6") (unit 1)
        )
      )
    )
  )

  (symbol (lib_id "dac_ino:Conn_01x01_Units") (at 201.93 127 0) (mirror x) (unit 3)
    (in_bom yes) (on_board yes) (dnp no)
    (uuid 00000000-0000-0000-0000-00005ec37f3c)
    (property "Reference" "J?" (at 199.8472 121.285 0)
      (effects (font (size 1.27 1.27)))
    )
    (property "Value" "Conn_01x01_Units" (at 199.8472 123.5964 0)
      (effects (font (size 1.27 1.27)))
    )
    (property "Footprint" "AO_tht:PinHeader_1x08_P2.54mm_Vertical" (at 201.93 127 0)
      (effects (font (size 1.27 1.27)) hide)
    )
    (property "Datasheet" "~" (at 201.93 127 0)
      (effects (font (size 1.27 1.27)) hide)
    )
    (pin "1" (uuid 0c90a72a-48d0-4353-8827-f9764f669692))
    (pin "2" (uuid 1e92c985-2018-49c5-8217-15ea18ddc701))
    (pin "3" (uuid ee3e0886-4cc6-4ad0-967d-1b3d599128cc))
    (pin "4" (uuid d8a0148c-8093-4ef8-9167-25c65ba50a60))
    (pin "5" (uuid 0310e665-d08b-4e9e-a16f-c32368d1936d))
    (pin "6" (uuid 438d487f-e061-4438-bed2-6494fd606fd3))
    (pin "7" (uuid 59bd62d4-9486-47fa-8947-f6cfd2cf5f87))
    (pin "8" (uuid 66f899aa-ab2f-47e3-b5ae-fbae486dc1bb))
    (instances
      (project "dac_ino"
        (path "/a3ee3a9b-af42-4cfb-aa19-76386359acdc/00000000-0000-0000-0000-00005e86bfc7/00000000-0000-0000-0000-00005e8670b9"
          (reference "J?") (unit 3)
        )
        (path "/a3ee3a9b-af42-4cfb-aa19-76386359acdc/00000000-0000-0000-0000-00005e86bfc7/00000000-0000-0000-0000-00005e845115"
          (reference "J?") (unit 2)
        )
        (path "/a3ee3a9b-af42-4cfb-aa19-76386359acdc/00000000-0000-0000-0000-00005e86bfc7/00000000-0000-0000-0000-00005e8150c7"
          (reference "J?") (unit 1)
        )
        (path "/a3ee3a9b-af42-4cfb-aa19-76386359acdc/00000000-0000-0000-0000-00005e84260a"
          (reference "J7") (unit 4)
        )
        (path "/a3ee3a9b-af42-4cfb-aa19-76386359acdc/00000000-0000-0000-0000-00005e86bfc7/00000000-0000-0000-0000-00005e867ac0"
          (reference "J?") (unit 4)
        )
      )
    )
  )

  (symbol (lib_id "dac_ino:Conn_01x01_Units") (at 201.93 136.525 0) (mirror x) (unit 3)
    (in_bom yes) (on_board yes) (dnp no)
    (uuid 00000000-0000-0000-0000-00005ec39f46)
    (property "Reference" "J?" (at 199.8472 130.81 0)
      (effects (font (size 1.27 1.27)))
    )
    (property "Value" "Conn_01x01_Units" (at 199.8472 133.1214 0)
      (effects (font (size 1.27 1.27)))
    )
    (property "Footprint" "AO_tht:PinHeader_1x08_P2.54mm_Vertical" (at 201.93 136.525 0)
      (effects (font (size 1.27 1.27)) hide)
    )
    (property "Datasheet" "~" (at 201.93 136.525 0)
      (effects (font (size 1.27 1.27)) hide)
    )
    (pin "1" (uuid 01616291-c9ae-41d8-bd77-7cecdf2dc55e))
    (pin "2" (uuid b1227448-b943-4398-9a0f-3118910925b8))
    (pin "3" (uuid a4ee1318-ed84-4ed0-856f-c8205d4fecb0))
    (pin "4" (uuid 95d60b85-7f8a-4c5d-b704-2eba360d9cb8))
    (pin "5" (uuid 7d127e7c-7312-4fbc-ae8e-cf33bf453937))
    (pin "6" (uuid b0b394b4-bc15-4649-a9f1-5f76df865e58))
    (pin "7" (uuid 4983bd2b-16f1-4c3d-9e9a-fb59643fdecd))
    (pin "8" (uuid b5844d47-3285-4177-bc1f-b639d2190dad))
    (instances
      (project "dac_ino"
        (path "/a3ee3a9b-af42-4cfb-aa19-76386359acdc/00000000-0000-0000-0000-00005e86bfc7/00000000-0000-0000-0000-00005e8670b9"
          (reference "J?") (unit 3)
        )
        (path "/a3ee3a9b-af42-4cfb-aa19-76386359acdc/00000000-0000-0000-0000-00005e86bfc7/00000000-0000-0000-0000-00005e845115"
          (reference "J?") (unit 2)
        )
        (path "/a3ee3a9b-af42-4cfb-aa19-76386359acdc/00000000-0000-0000-0000-00005e86bfc7/00000000-0000-0000-0000-00005e8150c7"
          (reference "J?") (unit 1)
        )
        (path "/a3ee3a9b-af42-4cfb-aa19-76386359acdc/00000000-0000-0000-0000-00005e84260a"
          (reference "J7") (unit 3)
        )
        (path "/a3ee3a9b-af42-4cfb-aa19-76386359acdc/00000000-0000-0000-0000-00005e86bfc7/00000000-0000-0000-0000-00005e867ac0"
          (reference "J?") (unit 4)
        )
      )
    )
  )
)
