(kicad_sch (version 20230121) (generator eeschema)

  (uuid 9104f625-dfd6-4463-a340-c02d4678fd65)

  (paper "A4")

  (lib_symbols
    (symbol "Connector_Generic:Conn_01x02" (pin_names (offset 1.016) hide) (in_bom yes) (on_board yes)
      (property "Reference" "J" (at 0 2.54 0)
        (effects (font (size 1.27 1.27)))
      )
      (property "Value" "Conn_01x02" (at 0 -5.08 0)
        (effects (font (size 1.27 1.27)))
      )
      (property "Footprint" "" (at 0 0 0)
        (effects (font (size 1.27 1.27)) hide)
      )
      (property "Datasheet" "~" (at 0 0 0)
        (effects (font (size 1.27 1.27)) hide)
      )
      (property "ki_keywords" "connector" (at 0 0 0)
        (effects (font (size 1.27 1.27)) hide)
      )
      (property "ki_description" "Generic connector, single row, 01x02, script generated (kicad-library-utils/schlib/autogen/connector/)" (at 0 0 0)
        (effects (font (size 1.27 1.27)) hide)
      )
      (property "ki_fp_filters" "Connector*:*_1x??_*" (at 0 0 0)
        (effects (font (size 1.27 1.27)) hide)
      )
      (symbol "Conn_01x02_1_1"
        (rectangle (start -1.27 -2.413) (end 0 -2.667)
          (stroke (width 0.1524) (type default))
          (fill (type none))
        )
        (rectangle (start -1.27 0.127) (end 0 -0.127)
          (stroke (width 0.1524) (type default))
          (fill (type none))
        )
        (rectangle (start -1.27 1.27) (end 1.27 -3.81)
          (stroke (width 0.254) (type default))
          (fill (type background))
        )
        (pin passive line (at -5.08 0 0) (length 3.81)
          (name "Pin_1" (effects (font (size 1.27 1.27))))
          (number "1" (effects (font (size 1.27 1.27))))
        )
        (pin passive line (at -5.08 -2.54 0) (length 3.81)
          (name "Pin_2" (effects (font (size 1.27 1.27))))
          (number "2" (effects (font (size 1.27 1.27))))
        )
      )
    )
    (symbol "Connector_Generic:Conn_01x04" (pin_names (offset 1.016) hide) (in_bom yes) (on_board yes)
      (property "Reference" "J" (at 0 5.08 0)
        (effects (font (size 1.27 1.27)))
      )
      (property "Value" "Conn_01x04" (at 0 -7.62 0)
        (effects (font (size 1.27 1.27)))
      )
      (property "Footprint" "" (at 0 0 0)
        (effects (font (size 1.27 1.27)) hide)
      )
      (property "Datasheet" "~" (at 0 0 0)
        (effects (font (size 1.27 1.27)) hide)
      )
      (property "ki_keywords" "connector" (at 0 0 0)
        (effects (font (size 1.27 1.27)) hide)
      )
      (property "ki_description" "Generic connector, single row, 01x04, script generated (kicad-library-utils/schlib/autogen/connector/)" (at 0 0 0)
        (effects (font (size 1.27 1.27)) hide)
      )
      (property "ki_fp_filters" "Connector*:*_1x??_*" (at 0 0 0)
        (effects (font (size 1.27 1.27)) hide)
      )
      (symbol "Conn_01x04_1_1"
        (rectangle (start -1.27 -4.953) (end 0 -5.207)
          (stroke (width 0.1524) (type default))
          (fill (type none))
        )
        (rectangle (start -1.27 -2.413) (end 0 -2.667)
          (stroke (width 0.1524) (type default))
          (fill (type none))
        )
        (rectangle (start -1.27 0.127) (end 0 -0.127)
          (stroke (width 0.1524) (type default))
          (fill (type none))
        )
        (rectangle (start -1.27 2.667) (end 0 2.413)
          (stroke (width 0.1524) (type default))
          (fill (type none))
        )
        (rectangle (start -1.27 3.81) (end 1.27 -6.35)
          (stroke (width 0.254) (type default))
          (fill (type background))
        )
        (pin passive line (at -5.08 2.54 0) (length 3.81)
          (name "Pin_1" (effects (font (size 1.27 1.27))))
          (number "1" (effects (font (size 1.27 1.27))))
        )
        (pin passive line (at -5.08 0 0) (length 3.81)
          (name "Pin_2" (effects (font (size 1.27 1.27))))
          (number "2" (effects (font (size 1.27 1.27))))
        )
        (pin passive line (at -5.08 -2.54 0) (length 3.81)
          (name "Pin_3" (effects (font (size 1.27 1.27))))
          (number "3" (effects (font (size 1.27 1.27))))
        )
        (pin passive line (at -5.08 -5.08 0) (length 3.81)
          (name "Pin_4" (effects (font (size 1.27 1.27))))
          (number "4" (effects (font (size 1.27 1.27))))
        )
      )
    )
    (symbol "Connector_Generic:Conn_01x08" (pin_names (offset 1.016) hide) (in_bom yes) (on_board yes)
      (property "Reference" "J" (at 0 10.16 0)
        (effects (font (size 1.27 1.27)))
      )
      (property "Value" "Conn_01x08" (at 0 -12.7 0)
        (effects (font (size 1.27 1.27)))
      )
      (property "Footprint" "" (at 0 0 0)
        (effects (font (size 1.27 1.27)) hide)
      )
      (property "Datasheet" "~" (at 0 0 0)
        (effects (font (size 1.27 1.27)) hide)
      )
      (property "ki_keywords" "connector" (at 0 0 0)
        (effects (font (size 1.27 1.27)) hide)
      )
      (property "ki_description" "Generic connector, single row, 01x08, script generated (kicad-library-utils/schlib/autogen/connector/)" (at 0 0 0)
        (effects (font (size 1.27 1.27)) hide)
      )
      (property "ki_fp_filters" "Connector*:*_1x??_*" (at 0 0 0)
        (effects (font (size 1.27 1.27)) hide)
      )
      (symbol "Conn_01x08_1_1"
        (rectangle (start -1.27 -10.033) (end 0 -10.287)
          (stroke (width 0.1524) (type default))
          (fill (type none))
        )
        (rectangle (start -1.27 -7.493) (end 0 -7.747)
          (stroke (width 0.1524) (type default))
          (fill (type none))
        )
        (rectangle (start -1.27 -4.953) (end 0 -5.207)
          (stroke (width 0.1524) (type default))
          (fill (type none))
        )
        (rectangle (start -1.27 -2.413) (end 0 -2.667)
          (stroke (width 0.1524) (type default))
          (fill (type none))
        )
        (rectangle (start -1.27 0.127) (end 0 -0.127)
          (stroke (width 0.1524) (type default))
          (fill (type none))
        )
        (rectangle (start -1.27 2.667) (end 0 2.413)
          (stroke (width 0.1524) (type default))
          (fill (type none))
        )
        (rectangle (start -1.27 5.207) (end 0 4.953)
          (stroke (width 0.1524) (type default))
          (fill (type none))
        )
        (rectangle (start -1.27 7.747) (end 0 7.493)
          (stroke (width 0.1524) (type default))
          (fill (type none))
        )
        (rectangle (start -1.27 8.89) (end 1.27 -11.43)
          (stroke (width 0.254) (type default))
          (fill (type background))
        )
        (pin passive line (at -5.08 7.62 0) (length 3.81)
          (name "Pin_1" (effects (font (size 1.27 1.27))))
          (number "1" (effects (font (size 1.27 1.27))))
        )
        (pin passive line (at -5.08 5.08 0) (length 3.81)
          (name "Pin_2" (effects (font (size 1.27 1.27))))
          (number "2" (effects (font (size 1.27 1.27))))
        )
        (pin passive line (at -5.08 2.54 0) (length 3.81)
          (name "Pin_3" (effects (font (size 1.27 1.27))))
          (number "3" (effects (font (size 1.27 1.27))))
        )
        (pin passive line (at -5.08 0 0) (length 3.81)
          (name "Pin_4" (effects (font (size 1.27 1.27))))
          (number "4" (effects (font (size 1.27 1.27))))
        )
        (pin passive line (at -5.08 -2.54 0) (length 3.81)
          (name "Pin_5" (effects (font (size 1.27 1.27))))
          (number "5" (effects (font (size 1.27 1.27))))
        )
        (pin passive line (at -5.08 -5.08 0) (length 3.81)
          (name "Pin_6" (effects (font (size 1.27 1.27))))
          (number "6" (effects (font (size 1.27 1.27))))
        )
        (pin passive line (at -5.08 -7.62 0) (length 3.81)
          (name "Pin_7" (effects (font (size 1.27 1.27))))
          (number "7" (effects (font (size 1.27 1.27))))
        )
        (pin passive line (at -5.08 -10.16 0) (length 3.81)
          (name "Pin_8" (effects (font (size 1.27 1.27))))
          (number "8" (effects (font (size 1.27 1.27))))
        )
      )
    )
    (symbol "power:GND" (power) (pin_names (offset 0)) (in_bom yes) (on_board yes)
      (property "Reference" "#PWR" (at 0 -6.35 0)
        (effects (font (size 1.27 1.27)) hide)
      )
      (property "Value" "GND" (at 0 -3.81 0)
        (effects (font (size 1.27 1.27)))
      )
      (property "Footprint" "" (at 0 0 0)
        (effects (font (size 1.27 1.27)) hide)
      )
      (property "Datasheet" "" (at 0 0 0)
        (effects (font (size 1.27 1.27)) hide)
      )
      (property "ki_keywords" "global power" (at 0 0 0)
        (effects (font (size 1.27 1.27)) hide)
      )
      (property "ki_description" "Power symbol creates a global label with name \"GND\" , ground" (at 0 0 0)
        (effects (font (size 1.27 1.27)) hide)
      )
      (symbol "GND_0_1"
        (polyline
          (pts
            (xy 0 0)
            (xy 0 -1.27)
            (xy 1.27 -1.27)
            (xy 0 -2.54)
            (xy -1.27 -1.27)
            (xy 0 -1.27)
          )
          (stroke (width 0) (type default))
          (fill (type none))
        )
      )
      (symbol "GND_1_1"
        (pin power_in line (at 0 0 270) (length 0) hide
          (name "GND" (effects (font (size 1.27 1.27))))
          (number "1" (effects (font (size 1.27 1.27))))
        )
      )
    )
  )


  (wire (pts (xy 113.03 167.64) (xy 118.11 167.64))
    (stroke (width 0) (type default))
    (uuid 08df7c75-c6db-40eb-abd9-bba4e7a1a49a)
  )
  (wire (pts (xy 128.905 162.56) (xy 128.905 163.195))
    (stroke (width 0) (type default))
    (uuid 1e6fd889-fa8f-4103-ad93-6005b06bb476)
  )
  (wire (pts (xy 113.03 177.8) (xy 118.11 177.8))
    (stroke (width 0) (type default))
    (uuid 1ee0de7a-99a9-4526-955a-cff88547d6f0)
  )
  (wire (pts (xy 113.03 151.13) (xy 118.11 151.13))
    (stroke (width 0) (type default))
    (uuid 288c9983-1679-45dc-93ec-773eb2899cbf)
  )
  (wire (pts (xy 119.38 121.92) (xy 124.46 121.92))
    (stroke (width 0) (type default))
    (uuid 2a843913-5ee0-4d49-a036-c320c4ce6631)
  )
  (wire (pts (xy 113.03 170.18) (xy 118.11 170.18))
    (stroke (width 0) (type default))
    (uuid 310ffdd3-a136-4901-b025-f4fcb1762697)
  )
  (wire (pts (xy 113.03 148.59) (xy 118.11 148.59))
    (stroke (width 0) (type default))
    (uuid 44e0bff2-82db-4549-9389-d2ff7efbb0bc)
  )
  (wire (pts (xy 113.03 165.1) (xy 118.11 165.1))
    (stroke (width 0) (type default))
    (uuid 4bc482e9-938b-47aa-84d9-3a5fb858b2b7)
  )
  (wire (pts (xy 119.38 69.723) (xy 124.46 69.723))
    (stroke (width 0) (type default))
    (uuid 4f3df74d-c217-4a97-b612-052e649bc83a)
  )
  (wire (pts (xy 113.03 153.67) (xy 118.11 153.67))
    (stroke (width 0) (type default))
    (uuid 58ae54b9-9f80-430c-809e-d66c3428a770)
  )
  (wire (pts (xy 148.59 69.85) (xy 153.67 69.85))
    (stroke (width 0) (type default))
    (uuid 6c5b4771-b25c-4438-af93-a6e95b355587)
  )
  (wire (pts (xy 140.97 146.05) (xy 146.05 146.05))
    (stroke (width 0) (type default))
    (uuid 7da109f6-29a7-4c10-b568-23e296bdf100)
  )
  (wire (pts (xy 119.38 104.14) (xy 124.46 104.14))
    (stroke (width 0) (type default))
    (uuid 805bd8f3-e0d1-4fb2-9d3a-9f2c0808e692)
  )
  (wire (pts (xy 113.03 146.05) (xy 118.11 146.05))
    (stroke (width 0) (type default))
    (uuid 909b7b7d-1dc1-42ef-a70b-05c1f395689e)
  )
  (wire (pts (xy 119.38 86.36) (xy 124.46 86.36))
    (stroke (width 0) (type default))
    (uuid 9154db44-a80c-43bf-9ed3-00c03b645e50)
  )
  (wire (pts (xy 113.03 162.56) (xy 128.905 162.56))
    (stroke (width 0) (type default))
    (uuid be87ecf8-ed03-497e-a37f-19d6450ab13a)
  )
  (wire (pts (xy 148.59 86.741) (xy 153.67 86.741))
    (stroke (width 0) (type default))
    (uuid c2233849-2937-441f-92d6-8c4cf8a81707)
  )
  (wire (pts (xy 140.97 148.59) (xy 146.05 148.59))
    (stroke (width 0) (type default))
    (uuid c406a891-2fa7-43a6-bad3-847d63e747f2)
  )
  (wire (pts (xy 148.59 104.14) (xy 153.67 104.14))
    (stroke (width 0) (type default))
    (uuid c65285cd-53e4-48f3-ad88-ebbb8d9a751d)
  )
  (wire (pts (xy 148.59 121.92) (xy 154.305 121.92))
    (stroke (width 0) (type default))
    (uuid d6f48ab9-8bc4-4ab6-931e-09215a508ccd)
  )
  (wire (pts (xy 113.03 175.26) (xy 118.11 175.26))
    (stroke (width 0) (type default))
    (uuid dc24237b-9bff-4aa9-9e9c-6f086eaf5958)
  )
  (wire (pts (xy 113.03 172.72) (xy 118.11 172.72))
    (stroke (width 0) (type default))
    (uuid fbfeb143-696a-4426-86ed-dad036b35f08)
  )

  (text "cc-ba-sa\nVincezno Pacella shadux@shaduzlabs.com\nRich Holmes rs.holmes@gmail.com"
    (at 180.34 179.07 0)
    (effects (font (size 2.54 2.54)) (justify left bottom))
    (uuid fd28a5c5-988a-4a46-aba6-b7e74f349e98)
  )

  (global_label "VCC" (shape input) (at 113.03 180.34 0)
    (effects (font (size 1.27 1.27)) (justify left))
    (uuid 0e420fc7-c845-4280-8c56-7c6983d5900e)
    (property "Intersheetrefs" "${INTERSHEET_REFS}" (at 113.03 180.34 0)
      (effects (font (size 1.27 1.27)) hide)
    )
  )

  (hierarchical_label "D8" (shape output) (at 146.05 146.05 0)
    (effects (font (size 1.27 1.27)) (justify left))
    (uuid 1ae45378-273d-4e66-85a8-48e2bb51af98)
  )
  (hierarchical_label "A4" (shape output) (at 118.11 170.18 0)
    (effects (font (size 1.27 1.27)) (justify left))
    (uuid 1b61476b-9511-4bc7-93b9-25433b2e7973)
  )
  (hierarchical_label "A2" (shape output) (at 124.46 121.92 0)
    (effects (font (size 1.27 1.27)) (justify left))
    (uuid 20be65c7-fb0d-49a2-85d9-a8b313099a94)
  )
  (hierarchical_label "A3" (shape output) (at 154.305 121.92 0)
    (effects (font (size 1.27 1.27)) (justify left))
    (uuid 2c6040f3-74b0-4d4a-ab9d-f43cbd151734)
  )
  (hierarchical_label "D8" (shape output) (at 118.11 167.64 0)
    (effects (font (size 1.27 1.27)) (justify left))
    (uuid 54646ebf-f9e0-4e94-8c26-4d921c1e38c4)
  )
  (hierarchical_label "D5" (shape output) (at 153.67 86.741 0)
    (effects (font (size 1.27 1.27)) (justify left))
    (uuid 612d5db2-de29-439d-86a9-7872fe18ef26)
  )
  (hierarchical_label "A6" (shape output) (at 118.11 148.59 0)
    (effects (font (size 1.27 1.27)) (justify left))
    (uuid 673a58ca-3370-425d-8d4c-690a14edf687)
  )
  (hierarchical_label "A5" (shape output) (at 118.11 151.13 0)
    (effects (font (size 1.27 1.27)) (justify left))
    (uuid 68dc2b86-3c2a-4b71-9052-f097e1d26bc8)
  )
  (hierarchical_label "D3" (shape output) (at 153.67 69.85 0)
    (effects (font (size 1.27 1.27)) (justify left))
    (uuid 71da20b3-ddc7-4b1c-9fa0-5d9e95b6f533)
  )
  (hierarchical_label "D4" (shape output) (at 124.46 86.36 0)
    (effects (font (size 1.27 1.27)) (justify left))
    (uuid 7abec640-f611-4be0-b4a5-70f0d5cb966f)
  )
  (hierarchical_label "A5" (shape output) (at 118.11 172.72 0)
    (effects (font (size 1.27 1.27)) (justify left))
    (uuid 84efb6b9-d8f1-401d-ad21-2502e4916d13)
  )
  (hierarchical_label "A0" (shape output) (at 124.46 104.14 0)
    (effects (font (size 1.27 1.27)) (justify left))
    (uuid 8d4c020a-a4df-4ee8-903d-bb81f0286051)
  )
  (hierarchical_label "A1" (shape output) (at 153.67 104.14 0)
    (effects (font (size 1.27 1.27)) (justify left))
    (uuid 9434113b-4d58-4fbd-8e29-b2bc458f2966)
  )
  (hierarchical_label "D9" (shape output) (at 118.11 165.1 0)
    (effects (font (size 1.27 1.27)) (justify left))
    (uuid 99ee9d19-72f0-406f-a362-ee9290ec952f)
  )
  (hierarchical_label "A4" (shape output) (at 118.11 153.67 0)
    (effects (font (size 1.27 1.27)) (justify left))
    (uuid bd3d94b5-2166-464b-b9e3-f44e40e0b5fa)
  )
  (hierarchical_label "A6" (shape output) (at 118.11 175.26 0)
    (effects (font (size 1.27 1.27)) (justify left))
    (uuid bef95de1-758b-47f9-aaf7-79df78a24280)
  )
  (hierarchical_label "D2" (shape output) (at 124.46 69.723 0)
    (effects (font (size 1.27 1.27)) (justify left))
    (uuid cbdb5799-3ad1-40c3-84de-5162be1957e8)
  )
  (hierarchical_label "D9" (shape output) (at 146.05 148.59 0)
    (effects (font (size 1.27 1.27)) (justify left))
    (uuid ce2b6cd1-9c4b-41c8-bf5a-313f63fe1f5c)
  )
  (hierarchical_label "A7" (shape output) (at 118.11 177.8 0)
    (effects (font (size 1.27 1.27)) (justify left))
    (uuid e3e4273a-637d-4417-acd1-4fc84184d7ea)
  )
  (hierarchical_label "A7" (shape output) (at 118.11 146.05 0)
    (effects (font (size 1.27 1.27)) (justify left))
    (uuid efb2066a-b46e-4f60-b9c8-69f2b5f8ae68)
  )

  (symbol (lib_id "Connector_Generic:Conn_01x04") (at 107.95 148.59 0) (mirror y) (unit 1)
    (in_bom yes) (on_board yes) (dnp no)
    (uuid 00000000-0000-0000-0000-00005e8e7ee3)
    (property "Reference" "J10" (at 110.0328 140.5382 0)
      (effects (font (size 1.27 1.27)))
    )
    (property "Value" "Conn_01x04" (at 110.0328 142.8496 0)
      (effects (font (size 1.27 1.27)))
    )
    (property "Footprint" "AO_tht:PinHeader_1x04_P2.54mm_Vertical" (at 107.95 148.59 0)
      (effects (font (size 1.27 1.27)) hide)
    )
    (property "Datasheet" "~" (at 107.95 148.59 0)
      (effects (font (size 1.27 1.27)) hide)
    )
    (pin "1" (uuid e341731e-d8bf-4e37-8ce0-27fc6832683e))
    (pin "2" (uuid 0fe78f2f-287e-4805-a7ef-90aba612eb65))
    (pin "3" (uuid 078db427-f59e-4a2e-a21b-4fc78c97f69d))
    (pin "4" (uuid b5953c0b-28f4-47fe-9c75-ce3e90e10f9d))
    (instances
      (project "dac_ino"
        (path "/a3ee3a9b-af42-4cfb-aa19-76386359acdc/00000000-0000-0000-0000-00005e86bfc7"
          (reference "J10") (unit 1)
        )
      )
    )
  )

  (symbol (lib_id "Connector_Generic:Conn_01x02") (at 135.89 146.05 0) (mirror y) (unit 1)
    (in_bom yes) (on_board yes) (dnp no)
    (uuid 00000000-0000-0000-0000-00005e968d29)
    (property "Reference" "J11" (at 137.9728 140.5382 0)
      (effects (font (size 1.27 1.27)))
    )
    (property "Value" "Conn_01x02" (at 137.9728 142.8496 0)
      (effects (font (size 1.27 1.27)))
    )
    (property "Footprint" "AO_tht:PinHeader_1x02_P2.54mm_Vertical" (at 135.89 146.05 0)
      (effects (font (size 1.27 1.27)) hide)
    )
    (property "Datasheet" "~" (at 135.89 146.05 0)
      (effects (font (size 1.27 1.27)) hide)
    )
    (pin "1" (uuid e0124e25-e585-41fe-9b46-a6a3ca8bb8e0))
    (pin "2" (uuid 9819bc32-75bf-47ed-896e-e98c9444d4fa))
    (instances
      (project "dac_ino"
        (path "/a3ee3a9b-af42-4cfb-aa19-76386359acdc/00000000-0000-0000-0000-00005e86bfc7"
          (reference "J11") (unit 1)
        )
      )
    )
  )

  (symbol (lib_id "Connector_Generic:Conn_01x08") (at 107.95 172.72 180) (unit 1)
    (in_bom yes) (on_board yes) (dnp no)
    (uuid 00000000-0000-0000-0000-00005ee4a407)
    (property "Reference" "J21" (at 110.0328 156.845 0)
      (effects (font (size 1.27 1.27)))
    )
    (property "Value" "Conn_01x06" (at 110.0328 159.1564 0)
      (effects (font (size 1.27 1.27)))
    )
    (property "Footprint" "AO_tht:Molex_KK-254_AE-6410-08A_1x08_P2.54mm_Vertical" (at 107.95 172.72 0)
      (effects (font (size 1.27 1.27)) hide)
    )
    (property "Datasheet" "~" (at 107.95 172.72 0)
      (effects (font (size 1.27 1.27)) hide)
    )
    (pin "1" (uuid f26498c5-c459-494a-bc57-0e3294f26d92))
    (pin "2" (uuid 9fd6ad31-ce46-4aa6-aa77-936b3baad12b))
    (pin "3" (uuid 90262fc7-66bb-42b1-91e4-0f31b6be7bb9))
    (pin "4" (uuid 646e85bb-55be-4e26-80cb-e88fddf6aae7))
    (pin "5" (uuid bbd53a5a-e776-4416-80f2-c2971b48a609))
    (pin "6" (uuid 7d342719-acd3-4be2-a229-c43b5440b5a3))
    (pin "7" (uuid fcbe0259-ae5b-4797-b6d1-b19a89d658ad))
    (pin "8" (uuid f90b43d9-860b-4ae4-a1b0-be68fa14201c))
    (instances
      (project "dac_ino"
        (path "/a3ee3a9b-af42-4cfb-aa19-76386359acdc/00000000-0000-0000-0000-00005e86bfc7"
          (reference "J21") (unit 1)
        )
      )
    )
  )

  (symbol (lib_id "power:GND") (at 128.905 163.195 0) (unit 1)
    (in_bom yes) (on_board yes) (dnp no)
    (uuid 00000000-0000-0000-0000-00005ee4f042)
    (property "Reference" "#PWR0102" (at 128.905 169.545 0)
      (effects (font (size 1.27 1.27)) hide)
    )
    (property "Value" "GND" (at 129.032 167.5892 0)
      (effects (font (size 1.27 1.27)))
    )
    (property "Footprint" "" (at 128.905 163.195 0)
      (effects (font (size 1.27 1.27)) hide)
    )
    (property "Datasheet" "" (at 128.905 163.195 0)
      (effects (font (size 1.27 1.27)) hide)
    )
    (pin "1" (uuid 425fb1a7-698b-4da6-b946-a0824d0539eb))
  )

  (sheet (at 105.41 65.913) (size 13.97 8.89) (fields_autoplaced)
    (stroke (width 0) (type solid))
    (fill (color 0 0 0 0.0000))
    (uuid 00000000-0000-0000-0000-00005e8150c7)
    (property "Sheetname" "Gate in A" (at 105.41 65.2014 0)
      (effects (font (size 1.27 1.27)) (justify left bottom))
    )
    (property "Sheetfile" "Gate_in.kicad_sch" (at 105.41 75.3876 0)
      (effects (font (size 1.27 1.27)) (justify left top))
    )
    (pin "D_IN" output (at 119.38 69.723 0)
      (effects (font (size 1.27 1.27)) (justify right))
      (uuid 13be72c2-f2ad-4cef-abcb-7c50c4da6eba)
    )
    (instances
      (project "dac_ino"
        (path "/a3ee3a9b-af42-4cfb-aa19-76386359acdc/00000000-0000-0000-0000-00005e86bfc7" (page "3"))
      )
    )
  )

  (sheet (at 134.62 66.04) (size 13.97 8.89) (fields_autoplaced)
    (stroke (width 0) (type solid))
    (fill (color 0 0 0 0.0000))
    (uuid 00000000-0000-0000-0000-00005e845115)
    (property "Sheetname" "Gate in B" (at 134.62 65.3284 0)
      (effects (font (size 1.27 1.27)) (justify left bottom))
    )
    (property "Sheetfile" "Gate_in.kicad_sch" (at 134.62 75.5146 0)
      (effects (font (size 1.27 1.27)) (justify left top))
    )
    (pin "D_IN" output (at 148.59 69.85 0)
      (effects (font (size 1.27 1.27)) (justify right))
      (uuid 88bdcaaa-0bc9-46b9-9728-708d7cb2bb3f)
    )
    (instances
      (project "dac_ino"
        (path "/a3ee3a9b-af42-4cfb-aa19-76386359acdc/00000000-0000-0000-0000-00005e86bfc7" (page "7"))
      )
    )
  )

  (sheet (at 105.41 82.55) (size 13.97 8.89) (fields_autoplaced)
    (stroke (width 0) (type solid))
    (fill (color 0 0 0 0.0000))
    (uuid 00000000-0000-0000-0000-00005e8670b9)
    (property "Sheetname" "Gate in C" (at 105.41 81.8384 0)
      (effects (font (size 1.27 1.27)) (justify left bottom))
    )
    (property "Sheetfile" "Gate_in.kicad_sch" (at 105.41 92.0246 0)
      (effects (font (size 1.27 1.27)) (justify left top))
    )
    (pin "D_IN" output (at 119.38 86.36 0)
      (effects (font (size 1.27 1.27)) (justify right))
      (uuid 6bfd07ff-3cd6-42de-a758-9fdf487a5ae4)
    )
    (instances
      (project "dac_ino"
        (path "/a3ee3a9b-af42-4cfb-aa19-76386359acdc/00000000-0000-0000-0000-00005e86bfc7" (page "4"))
      )
    )
  )

  (sheet (at 134.62 82.931) (size 13.97 8.89) (fields_autoplaced)
    (stroke (width 0) (type solid))
    (fill (color 0 0 0 0.0000))
    (uuid 00000000-0000-0000-0000-00005e867ac0)
    (property "Sheetname" "Gate in D" (at 134.62 82.2194 0)
      (effects (font (size 1.27 1.27)) (justify left bottom))
    )
    (property "Sheetfile" "Gate_in.kicad_sch" (at 134.62 92.4056 0)
      (effects (font (size 1.27 1.27)) (justify left top))
    )
    (pin "D_IN" output (at 148.59 86.741 0)
      (effects (font (size 1.27 1.27)) (justify right))
      (uuid 9118fa68-1535-4bac-93c1-9144e05fc306)
    )
    (instances
      (project "dac_ino"
        (path "/a3ee3a9b-af42-4cfb-aa19-76386359acdc/00000000-0000-0000-0000-00005e86bfc7" (page "8"))
      )
    )
  )

  (sheet (at 105.41 100.33) (size 13.97 8.89) (fields_autoplaced)
    (stroke (width 0) (type solid))
    (fill (color 0 0 0 0.0000))
    (uuid 00000000-0000-0000-0000-00005e895183)
    (property "Sheetname" "CV in A" (at 105.41 99.6184 0)
      (effects (font (size 1.27 1.27)) (justify left bottom))
    )
    (property "Sheetfile" "CV_in.kicad_sch" (at 105.41 109.8046 0)
      (effects (font (size 1.27 1.27)) (justify left top))
    )
    (pin "A_IN" output (at 119.38 104.14 0)
      (effects (font (size 1.27 1.27)) (justify right))
      (uuid 8921ce14-2bc7-42bc-a6ad-620f6764decc)
    )
    (instances
      (project "dac_ino"
        (path "/a3ee3a9b-af42-4cfb-aa19-76386359acdc/00000000-0000-0000-0000-00005e86bfc7" (page "5"))
      )
    )
  )

  (sheet (at 134.62 100.33) (size 13.97 8.89) (fields_autoplaced)
    (stroke (width 0) (type solid))
    (fill (color 0 0 0 0.0000))
    (uuid 00000000-0000-0000-0000-00005e8954b7)
    (property "Sheetname" "CV in B" (at 134.62 99.6184 0)
      (effects (font (size 1.27 1.27)) (justify left bottom))
    )
    (property "Sheetfile" "CV_in.kicad_sch" (at 134.62 109.8046 0)
      (effects (font (size 1.27 1.27)) (justify left top))
    )
    (pin "A_IN" output (at 148.59 104.14 0)
      (effects (font (size 1.27 1.27)) (justify right))
      (uuid 0ea48d6a-21cc-43f8-82e4-486e144fac2a)
    )
    (instances
      (project "dac_ino"
        (path "/a3ee3a9b-af42-4cfb-aa19-76386359acdc/00000000-0000-0000-0000-00005e86bfc7" (page "9"))
      )
    )
  )

  (sheet (at 105.41 118.11) (size 13.97 8.89) (fields_autoplaced)
    (stroke (width 0) (type solid))
    (fill (color 0 0 0 0.0000))
    (uuid 00000000-0000-0000-0000-00005e974f2e)
    (property "Sheetname" "CV in C" (at 105.41 117.3984 0)
      (effects (font (size 1.27 1.27)) (justify left bottom))
    )
    (property "Sheetfile" "CV_in.kicad_sch" (at 105.41 127.5846 0)
      (effects (font (size 1.27 1.27)) (justify left top))
    )
    (pin "A_IN" output (at 119.38 121.92 0)
      (effects (font (size 1.27 1.27)) (justify right))
      (uuid 05fe8247-52f0-4fa2-8f7c-8e1fdc82359c)
    )
    (instances
      (project "dac_ino"
        (path "/a3ee3a9b-af42-4cfb-aa19-76386359acdc/00000000-0000-0000-0000-00005e86bfc7" (page "6"))
      )
    )
  )

  (sheet (at 134.62 118.11) (size 13.97 8.89) (fields_autoplaced)
    (stroke (width 0) (type solid))
    (fill (color 0 0 0 0.0000))
    (uuid 00000000-0000-0000-0000-00005e974f9e)
    (property "Sheetname" "CV IN D" (at 134.62 117.3984 0)
      (effects (font (size 1.27 1.27)) (justify left bottom))
    )
    (property "Sheetfile" "CV_in.kicad_sch" (at 134.62 127.5846 0)
      (effects (font (size 1.27 1.27)) (justify left top))
    )
    (pin "A_IN" output (at 148.59 121.92 0)
      (effects (font (size 1.27 1.27)) (justify right))
      (uuid 7c4aae71-06cb-43ce-9566-61c5c601c8ff)
    )
    (instances
      (project "dac_ino"
        (path "/a3ee3a9b-af42-4cfb-aa19-76386359acdc/00000000-0000-0000-0000-00005e86bfc7" (page "10"))
      )
    )
  )
)
